(kicad_pcb (version 20171130) (host pcbnew "(5.0.0-3-g5ebb6b6)")

  (general
    (thickness 1.6)
    (drawings 39)
    (tracks 89)
    (zones 0)
    (modules 8)
    (nets 33)
  )

  (page A4)
  (layers
    (0 F.Cu signal)
    (31 B.Cu signal)
    (32 B.Adhes user)
    (33 F.Adhes user)
    (34 B.Paste user)
    (35 F.Paste user)
    (36 B.SilkS user)
    (37 F.SilkS user)
    (38 B.Mask user)
    (39 F.Mask user)
    (40 Dwgs.User user)
    (41 Cmts.User user)
    (42 Eco1.User user)
    (43 Eco2.User user)
    (44 Edge.Cuts user)
    (45 Margin user)
    (46 B.CrtYd user)
    (47 F.CrtYd user)
    (48 B.Fab user)
    (49 F.Fab user)
  )

  (setup
    (last_trace_width 0.25)
    (trace_clearance 0.2)
    (zone_clearance 0.508)
    (zone_45_only no)
    (trace_min 0.2)
    (segment_width 0.2)
    (edge_width 0.15)
    (via_size 0.8)
    (via_drill 0.4)
    (via_min_size 0.4)
    (via_min_drill 0.3)
    (uvia_size 0.3)
    (uvia_drill 0.1)
    (uvias_allowed no)
    (uvia_min_size 0.2)
    (uvia_min_drill 0.1)
    (pcb_text_width 0.3)
    (pcb_text_size 1.5 1.5)
    (mod_edge_width 0.15)
    (mod_text_size 1 1)
    (mod_text_width 0.15)
    (pad_size 1.7 1.7)
    (pad_drill 1)
    (pad_to_mask_clearance 0.2)
    (aux_axis_origin 0 0)
    (visible_elements FFFFFF7F)
    (pcbplotparams
      (layerselection 0x010fc_ffffffff)
      (usegerberextensions true)
      (usegerberattributes false)
      (usegerberadvancedattributes false)
      (creategerberjobfile false)
      (excludeedgelayer true)
      (linewidth 0.100000)
      (plotframeref false)
      (viasonmask false)
      (mode 1)
      (useauxorigin false)
      (hpglpennumber 1)
      (hpglpenspeed 20)
      (hpglpendiameter 15.000000)
      (psnegative false)
      (psa4output false)
      (plotreference true)
      (plotvalue true)
      (plotinvisibletext false)
      (padsonsilk false)
      (subtractmaskfromsilk false)
      (outputformat 1)
      (mirror false)
      (drillshape 0)
      (scaleselection 1)
      (outputdirectory "gerber/"))
  )

  (net 0 "")
  (net 1 "Net-(A1-Pad17)")
  (net 2 "Net-(A1-Pad18)")
  (net 3 "Net-(A1-Pad19)")
  (net 4 "Net-(A1-Pad20)")
  (net 5 "Net-(A1-Pad21)")
  (net 6 "Net-(A1-Pad22)")
  (net 7 "Net-(A1-Pad23)")
  (net 8 "Net-(A1-Pad8)")
  (net 9 "Net-(A1-Pad24)")
  (net 10 "Net-(A1-Pad9)")
  (net 11 "Net-(A1-Pad25)")
  (net 12 "Net-(A1-Pad10)")
  (net 13 "Net-(A1-Pad11)")
  (net 14 "Net-(A1-Pad12)")
  (net 15 "Net-(A1-Pad28)")
  (net 16 "Net-(A1-Pad13)")
  (net 17 "Net-(A1-Pad29)")
  (net 18 "Net-(A1-Pad15)")
  (net 19 "Net-(A1-Pad16)")
  (net 20 TX)
  (net 21 RX)
  (net 22 GND)
  (net 23 PowerSwitch)
  (net 24 PowerLed)
  (net 25 Relay)
  (net 26 VIN)
  (net 27 PowerLedR)
  (net 28 "Net-(A1-Pad6)")
  (net 29 LDR_S)
  (net 30 5V)
  (net 31 RST)
  (net 32 "Net-(C1-Pad1)")

  (net_class Default "This is the default net class."
    (clearance 0.2)
    (trace_width 0.25)
    (via_dia 0.8)
    (via_drill 0.4)
    (uvia_dia 0.3)
    (uvia_drill 0.1)
    (add_net 5V)
    (add_net GND)
    (add_net LDR_S)
    (add_net "Net-(A1-Pad10)")
    (add_net "Net-(A1-Pad11)")
    (add_net "Net-(A1-Pad12)")
    (add_net "Net-(A1-Pad13)")
    (add_net "Net-(A1-Pad15)")
    (add_net "Net-(A1-Pad16)")
    (add_net "Net-(A1-Pad17)")
    (add_net "Net-(A1-Pad18)")
    (add_net "Net-(A1-Pad19)")
    (add_net "Net-(A1-Pad20)")
    (add_net "Net-(A1-Pad21)")
    (add_net "Net-(A1-Pad22)")
    (add_net "Net-(A1-Pad23)")
    (add_net "Net-(A1-Pad24)")
    (add_net "Net-(A1-Pad25)")
    (add_net "Net-(A1-Pad28)")
    (add_net "Net-(A1-Pad29)")
    (add_net "Net-(A1-Pad6)")
    (add_net "Net-(A1-Pad8)")
    (add_net "Net-(A1-Pad9)")
    (add_net "Net-(C1-Pad1)")
    (add_net PowerLed)
    (add_net PowerLedR)
    (add_net PowerSwitch)
    (add_net RST)
    (add_net RX)
    (add_net Relay)
    (add_net TX)
    (add_net VIN)
  )

  (module Connector_PinHeader_2.54mm:PinHeader_1x12_P2.54mm_Vertical (layer F.Cu) (tedit 5CE81065) (tstamp 5CDB387E)
    (at 140.5 65.75 270)
    (descr "Through hole straight pin header, 1x12, 2.54mm pitch, single row")
    (tags "Through hole pin header THT 1x12 2.54mm single row")
    (path /5CD86407)
    (fp_text reference J1 (at 0 -2.33 270) (layer F.SilkS)
      (effects (font (size 1 1) (thickness 0.15)))
    )
    (fp_text value Conn_01x12_Male (at 0 30.27 270) (layer F.Fab)
      (effects (font (size 1 1) (thickness 0.15)))
    )
    (fp_line (start -0.635 -1.27) (end 1.27 -1.27) (layer F.Fab) (width 0.1))
    (fp_line (start 1.27 -1.27) (end 1.27 29.21) (layer F.Fab) (width 0.1))
    (fp_line (start 1.27 29.21) (end -1.27 29.21) (layer F.Fab) (width 0.1))
    (fp_line (start -1.27 29.21) (end -1.27 -0.635) (layer F.Fab) (width 0.1))
    (fp_line (start -1.27 -0.635) (end -0.635 -1.27) (layer F.Fab) (width 0.1))
    (fp_line (start -1.33 29.27) (end 1.33 29.27) (layer F.SilkS) (width 0.12))
    (fp_line (start -1.33 1.27) (end -1.33 29.27) (layer F.SilkS) (width 0.12))
    (fp_line (start 1.33 1.27) (end 1.33 29.27) (layer F.SilkS) (width 0.12))
    (fp_line (start -1.33 1.27) (end 1.33 1.27) (layer F.SilkS) (width 0.12))
    (fp_line (start -1.33 0) (end -1.33 -1.33) (layer F.SilkS) (width 0.12))
    (fp_line (start -1.33 -1.33) (end 0 -1.33) (layer F.SilkS) (width 0.12))
    (fp_line (start -1.8 -1.8) (end -1.8 29.75) (layer F.CrtYd) (width 0.05))
    (fp_line (start -1.8 29.75) (end 1.8 29.75) (layer F.CrtYd) (width 0.05))
    (fp_line (start 1.8 29.75) (end 1.8 -1.8) (layer F.CrtYd) (width 0.05))
    (fp_line (start 1.8 -1.8) (end -1.8 -1.8) (layer F.CrtYd) (width 0.05))
    (fp_text user %R (at 0 13.97) (layer F.Fab)
      (effects (font (size 1 1) (thickness 0.15)))
    )
    (pad 1 thru_hole circle (at 0 0 270) (size 1.7 1.7) (drill 1) (layers *.Cu *.Mask)
      (net 26 VIN))
    (pad 2 thru_hole oval (at 0 2.54 270) (size 1.7 1.7) (drill 1) (layers *.Cu *.Mask)
      (net 22 GND))
    (pad 3 thru_hole oval (at 0 5.08 270) (size 1.7 1.7) (drill 1) (layers *.Cu *.Mask)
      (net 23 PowerSwitch))
    (pad 4 thru_hole oval (at 0 7.62 270) (size 1.7 1.7) (drill 1) (layers *.Cu *.Mask)
      (net 22 GND))
    (pad 5 thru_hole oval (at 0 10.16 270) (size 1.7 1.7) (drill 1) (layers *.Cu *.Mask)
      (net 27 PowerLedR))
    (pad 6 thru_hole oval (at 0 12.7 270) (size 1.7 1.7) (drill 1) (layers *.Cu *.Mask)
      (net 22 GND))
    (pad 7 thru_hole oval (at 0 15.24 270) (size 1.7 1.7) (drill 1) (layers *.Cu *.Mask)
      (net 25 Relay))
    (pad 8 thru_hole oval (at 0 17.78 270) (size 1.7 1.7) (drill 1) (layers *.Cu *.Mask)
      (net 30 5V))
    (pad 9 thru_hole oval (at 0 20.32 270) (size 1.7 1.7) (drill 1) (layers *.Cu *.Mask)
      (net 22 GND))
    (pad 10 thru_hole oval (at 0 22.86 270) (size 1.7 1.7) (drill 1) (layers *.Cu *.Mask)
      (net 22 GND))
    (pad 11 thru_hole oval (at 0 25.4 270) (size 1.7 1.7) (drill 1) (layers *.Cu *.Mask)
      (net 21 RX))
    (pad 12 thru_hole oval (at 0 27.94 270) (size 1.7 1.7) (drill 1) (layers *.Cu *.Mask)
      (net 20 TX))
    (model ${KISYS3DMOD}/Connector_PinHeader_2.54mm.3dshapes/PinHeader_1x12_P2.54mm_Vertical.wrl
      (at (xyz 0 0 0))
      (scale (xyz 1 1 1))
      (rotate (xyz 0 0 0))
    )
  )

  (module Module:Arduino_Nano (layer F.Cu) (tedit 5CD7E073) (tstamp 5CD94246)
    (at 143 80 270)
    (descr "Arduino Nano, http://www.mouser.com/pdfdocs/Gravitech_Arduino_Nano3_0.pdf")
    (tags "Arduino Nano")
    (path /5CD7CB24)
    (fp_text reference A1 (at 7.62 -5.08 270) (layer F.SilkS) hide
      (effects (font (size 1 1) (thickness 0.15)))
    )
    (fp_text value Arduino_Nano_v3.x (at 8.89 19.05) (layer F.Fab)
      (effects (font (size 1 1) (thickness 0.15)))
    )
    (fp_text user %R (at 6.35 19.05) (layer F.Fab)
      (effects (font (size 1 1) (thickness 0.15)))
    )
    (fp_line (start 1.27 1.27) (end 1.27 -1.27) (layer F.SilkS) (width 0.12))
    (fp_line (start 1.27 -1.27) (end -1.4 -1.27) (layer F.SilkS) (width 0.12))
    (fp_line (start -1.4 1.27) (end -1.4 39.5) (layer F.SilkS) (width 0.12))
    (fp_line (start -1.4 -3.94) (end -1.4 -1.27) (layer F.SilkS) (width 0.12))
    (fp_line (start 13.97 -1.27) (end 16.64 -1.27) (layer F.SilkS) (width 0.12))
    (fp_line (start 13.97 -1.27) (end 13.97 36.83) (layer F.SilkS) (width 0.12))
    (fp_line (start 13.97 36.83) (end 16.64 36.83) (layer F.SilkS) (width 0.12))
    (fp_line (start 1.27 1.27) (end -1.4 1.27) (layer F.SilkS) (width 0.12))
    (fp_line (start 1.27 1.27) (end 1.27 36.83) (layer F.SilkS) (width 0.12))
    (fp_line (start 1.27 36.83) (end -1.4 36.83) (layer F.SilkS) (width 0.12))
    (fp_line (start 3.81 31.75) (end 11.43 31.75) (layer F.Fab) (width 0.1))
    (fp_line (start 11.43 31.75) (end 11.43 41.91) (layer F.Fab) (width 0.1))
    (fp_line (start 11.43 41.91) (end 3.81 41.91) (layer F.Fab) (width 0.1))
    (fp_line (start 3.81 41.91) (end 3.81 31.75) (layer F.Fab) (width 0.1))
    (fp_line (start -1.4 39.5) (end 16.64 39.5) (layer F.SilkS) (width 0.12))
    (fp_line (start 16.64 39.5) (end 16.64 -3.94) (layer F.SilkS) (width 0.12))
    (fp_line (start 16.64 -3.94) (end -1.4 -3.94) (layer F.SilkS) (width 0.12))
    (fp_line (start 16.51 39.37) (end -1.27 39.37) (layer F.Fab) (width 0.1))
    (fp_line (start -1.27 39.37) (end -1.27 -2.54) (layer F.Fab) (width 0.1))
    (fp_line (start -1.27 -2.54) (end 0 -3.81) (layer F.Fab) (width 0.1))
    (fp_line (start 0 -3.81) (end 16.51 -3.81) (layer F.Fab) (width 0.1))
    (fp_line (start 16.51 -3.81) (end 16.51 39.37) (layer F.Fab) (width 0.1))
    (fp_line (start -1.53 -4.06) (end 16.75 -4.06) (layer F.CrtYd) (width 0.05))
    (fp_line (start -1.53 -4.06) (end -1.53 42.16) (layer F.CrtYd) (width 0.05))
    (fp_line (start 16.75 42.16) (end 16.75 -4.06) (layer F.CrtYd) (width 0.05))
    (fp_line (start 16.75 42.16) (end -1.53 42.16) (layer F.CrtYd) (width 0.05))
    (pad 1 thru_hole rect (at 0 0 270) (size 1.6 1.6) (drill 0.8) (layers *.Cu *.Mask)
      (net 20 TX))
    (pad 17 thru_hole oval (at 15.24 33.02 270) (size 1.6 1.6) (drill 0.8) (layers *.Cu *.Mask)
      (net 1 "Net-(A1-Pad17)"))
    (pad 2 thru_hole oval (at 0 2.54 270) (size 1.6 1.6) (drill 0.8) (layers *.Cu *.Mask)
      (net 21 RX))
    (pad 18 thru_hole oval (at 15.24 30.48 270) (size 1.6 1.6) (drill 0.8) (layers *.Cu *.Mask)
      (net 2 "Net-(A1-Pad18)"))
    (pad 3 thru_hole oval (at 0 5.08 270) (size 1.6 1.6) (drill 0.8) (layers *.Cu *.Mask)
      (net 31 RST))
    (pad 19 thru_hole oval (at 15.24 27.94 270) (size 1.6 1.6) (drill 0.8) (layers *.Cu *.Mask)
      (net 3 "Net-(A1-Pad19)"))
    (pad 4 thru_hole oval (at 0 7.62 270) (size 1.6 1.6) (drill 0.8) (layers *.Cu *.Mask)
      (net 22 GND))
    (pad 20 thru_hole oval (at 15.24 25.4 270) (size 1.6 1.6) (drill 0.8) (layers *.Cu *.Mask)
      (net 4 "Net-(A1-Pad20)"))
    (pad 5 thru_hole oval (at 0 10.16 270) (size 1.6 1.6) (drill 0.8) (layers *.Cu *.Mask)
      (net 23 PowerSwitch))
    (pad 21 thru_hole oval (at 15.24 22.86 270) (size 1.6 1.6) (drill 0.8) (layers *.Cu *.Mask)
      (net 5 "Net-(A1-Pad21)"))
    (pad 6 thru_hole oval (at 0 12.7 270) (size 1.6 1.6) (drill 0.8) (layers *.Cu *.Mask)
      (net 28 "Net-(A1-Pad6)"))
    (pad 22 thru_hole oval (at 15.24 20.32 270) (size 1.6 1.6) (drill 0.8) (layers *.Cu *.Mask)
      (net 6 "Net-(A1-Pad22)"))
    (pad 7 thru_hole oval (at 0 15.24 270) (size 1.6 1.6) (drill 0.8) (layers *.Cu *.Mask)
      (net 25 Relay))
    (pad 23 thru_hole oval (at 15.24 17.78 270) (size 1.6 1.6) (drill 0.8) (layers *.Cu *.Mask)
      (net 7 "Net-(A1-Pad23)"))
    (pad 8 thru_hole oval (at 0 17.78 270) (size 1.6 1.6) (drill 0.8) (layers *.Cu *.Mask)
      (net 8 "Net-(A1-Pad8)"))
    (pad 24 thru_hole oval (at 15.24 15.24 270) (size 1.6 1.6) (drill 0.8) (layers *.Cu *.Mask)
      (net 9 "Net-(A1-Pad24)"))
    (pad 9 thru_hole oval (at 0 20.32 270) (size 1.6 1.6) (drill 0.8) (layers *.Cu *.Mask)
      (net 10 "Net-(A1-Pad9)"))
    (pad 25 thru_hole oval (at 15.24 12.7 270) (size 1.6 1.6) (drill 0.8) (layers *.Cu *.Mask)
      (net 11 "Net-(A1-Pad25)"))
    (pad 10 thru_hole oval (at 0 22.86 270) (size 1.6 1.6) (drill 0.8) (layers *.Cu *.Mask)
      (net 12 "Net-(A1-Pad10)"))
    (pad 26 thru_hole oval (at 15.24 10.16 270) (size 1.6 1.6) (drill 0.8) (layers *.Cu *.Mask)
      (net 29 LDR_S))
    (pad 11 thru_hole oval (at 0 25.4 270) (size 1.6 1.6) (drill 0.8) (layers *.Cu *.Mask)
      (net 13 "Net-(A1-Pad11)"))
    (pad 27 thru_hole oval (at 15.24 7.62 270) (size 1.6 1.6) (drill 0.8) (layers *.Cu *.Mask)
      (net 30 5V))
    (pad 12 thru_hole oval (at 0 27.94 270) (size 1.6 1.6) (drill 0.8) (layers *.Cu *.Mask)
      (net 14 "Net-(A1-Pad12)"))
    (pad 28 thru_hole oval (at 15.24 5.08 270) (size 1.6 1.6) (drill 0.8) (layers *.Cu *.Mask)
      (net 15 "Net-(A1-Pad28)"))
    (pad 13 thru_hole oval (at 0 30.48 270) (size 1.6 1.6) (drill 0.8) (layers *.Cu *.Mask)
      (net 16 "Net-(A1-Pad13)"))
    (pad 29 thru_hole oval (at 15.24 2.54 270) (size 1.6 1.6) (drill 0.8) (layers *.Cu *.Mask)
      (net 17 "Net-(A1-Pad29)"))
    (pad 14 thru_hole oval (at 0 33.02 270) (size 1.6 1.6) (drill 0.8) (layers *.Cu *.Mask)
      (net 24 PowerLed))
    (pad 30 thru_hole oval (at 15.24 0 270) (size 1.6 1.6) (drill 0.8) (layers *.Cu *.Mask)
      (net 26 VIN))
    (pad 15 thru_hole oval (at 0 35.56 270) (size 1.6 1.6) (drill 0.8) (layers *.Cu *.Mask)
      (net 18 "Net-(A1-Pad15)"))
    (pad 16 thru_hole oval (at 15.24 35.56 270) (size 1.6 1.6) (drill 0.8) (layers *.Cu *.Mask)
      (net 19 "Net-(A1-Pad16)"))
    (model ${KISYS3DMOD}/Module.3dshapes/Arduino_Nano_WithMountingHoles.wrl
      (at (xyz 0 0 0))
      (scale (xyz 1 1 1))
      (rotate (xyz 0 0 0))
    )
  )

  (module Resistor_THT:R_Axial_DIN0204_L3.6mm_D1.6mm_P5.08mm_Vertical (layer F.Cu) (tedit 5CD7E28E) (tstamp 5CD942B1)
    (at 130.25 70.25 270)
    (descr "Resistor, Axial_DIN0204 series, Axial, Vertical, pin pitch=5.08mm, 0.167W, length*diameter=3.6*1.6mm^2, http://cdn-reichelt.de/documents/datenblatt/B400/1_4W%23YAG.pdf")
    (tags "Resistor Axial_DIN0204 series Axial Vertical pin pitch 5.08mm 0.167W length 3.6mm diameter 1.6mm")
    (path /5CD7DA4F)
    (fp_text reference R1 (at 2.54 1.92 90) (layer F.SilkS)
      (effects (font (size 1 1) (thickness 0.15)))
    )
    (fp_text value "750 Ohm +/- 10%" (at 2.54 1.92 270) (layer F.Fab)
      (effects (font (size 1 1) (thickness 0.15)))
    )
    (fp_circle (center 0 0) (end 0.8 0) (layer F.Fab) (width 0.1))
    (fp_circle (center 0 0) (end 0.92 0) (layer F.SilkS) (width 0.12))
    (fp_line (start 0 0) (end 5.08 0) (layer F.Fab) (width 0.1))
    (fp_line (start 0.92 0) (end 4.08 0) (layer F.SilkS) (width 0.12))
    (fp_line (start -1.05 -1.05) (end -1.05 1.05) (layer F.CrtYd) (width 0.05))
    (fp_line (start -1.05 1.05) (end 6.03 1.05) (layer F.CrtYd) (width 0.05))
    (fp_line (start 6.03 1.05) (end 6.03 -1.05) (layer F.CrtYd) (width 0.05))
    (fp_line (start 6.03 -1.05) (end -1.05 -1.05) (layer F.CrtYd) (width 0.05))
    (fp_text user %R (at 2.54 -1.92 90 unlocked) (layer F.Fab)
      (effects (font (size 1 1) (thickness 0.15)))
    )
    (pad 1 thru_hole circle (at 0 0 270) (size 1.4 1.4) (drill 0.7) (layers *.Cu *.Mask)
      (net 27 PowerLedR))
    (pad 2 thru_hole oval (at 5.08 0 270) (size 1.4 1.4) (drill 0.7) (layers *.Cu *.Mask)
      (net 24 PowerLed))
    (model ${KISYS3DMOD}/Resistor_THT.3dshapes/R_Axial_DIN0204_L3.6mm_D1.6mm_P5.08mm_Vertical.wrl
      (at (xyz 0 0 0))
      (scale (xyz 1 1 1))
      (rotate (xyz 0 0 0))
    )
  )

  (module MountingHole:MountingHole_4mm (layer F.Cu) (tedit 5CD7D2E9) (tstamp 5CD9DA29)
    (at 100 60)
    (descr "Mounting Hole 4mm, no annular")
    (tags "mounting hole 4mm no annular")
    (attr virtual)
    (fp_text reference REF** (at 0 -5) (layer F.SilkS) hide
      (effects (font (size 1 1) (thickness 0.15)))
    )
    (fp_text value MountingHole_4mm (at 0 5) (layer F.Fab) hide
      (effects (font (size 1 1) (thickness 0.15)))
    )
    (fp_circle (center 0 0) (end 4.25 0) (layer F.CrtYd) (width 0.05))
    (fp_circle (center 0 0) (end 4 0) (layer Cmts.User) (width 0.15))
    (fp_text user %R (at 0.3 0) (layer F.Fab)
      (effects (font (size 1 1) (thickness 0.15)))
    )
    (pad 1 np_thru_hole circle (at 0 0) (size 4 4) (drill 4) (layers *.Cu *.Mask))
  )

  (module MountingHole:MountingHole_4mm (layer F.Cu) (tedit 5CD7D2F1) (tstamp 5CD9DA38)
    (at 147.5 60)
    (descr "Mounting Hole 4mm, no annular")
    (tags "mounting hole 4mm no annular")
    (attr virtual)
    (fp_text reference REF** (at 0 -5) (layer F.SilkS) hide
      (effects (font (size 1 1) (thickness 0.15)))
    )
    (fp_text value MountingHole_4mm (at 0 5) (layer F.Fab) hide
      (effects (font (size 1 1) (thickness 0.15)))
    )
    (fp_circle (center 0 0) (end 4.25 0) (layer F.CrtYd) (width 0.05))
    (fp_circle (center 0 0) (end 4 0) (layer Cmts.User) (width 0.15))
    (fp_text user %R (at 0.3 0) (layer F.Fab)
      (effects (font (size 1 1) (thickness 0.15)))
    )
    (pad 1 np_thru_hole circle (at 0 0) (size 4 4) (drill 4) (layers *.Cu *.Mask))
  )

  (module Connector_PinHeader_2.54mm:PinHeader_1x03_P2.54mm_Vertical (layer F.Cu) (tedit 5CE8105C) (tstamp 5CE8105B)
    (at 149.5 85)
    (descr "Through hole straight pin header, 1x03, 2.54mm pitch, single row")
    (tags "Through hole pin header THT 1x03 2.54mm single row")
    (path /5CE80C31)
    (fp_text reference J2 (at 0 -2.33) (layer F.SilkS)
      (effects (font (size 1 1) (thickness 0.15)))
    )
    (fp_text value Conn_01x03_Male (at 0 7.41) (layer F.Fab)
      (effects (font (size 1 1) (thickness 0.15)))
    )
    (fp_line (start -0.635 -1.27) (end 1.27 -1.27) (layer F.Fab) (width 0.1))
    (fp_line (start 1.27 -1.27) (end 1.27 6.35) (layer F.Fab) (width 0.1))
    (fp_line (start 1.27 6.35) (end -1.27 6.35) (layer F.Fab) (width 0.1))
    (fp_line (start -1.27 6.35) (end -1.27 -0.635) (layer F.Fab) (width 0.1))
    (fp_line (start -1.27 -0.635) (end -0.635 -1.27) (layer F.Fab) (width 0.1))
    (fp_line (start -1.33 6.41) (end 1.33 6.41) (layer F.SilkS) (width 0.12))
    (fp_line (start -1.33 1.27) (end -1.33 6.41) (layer F.SilkS) (width 0.12))
    (fp_line (start 1.33 1.27) (end 1.33 6.41) (layer F.SilkS) (width 0.12))
    (fp_line (start -1.33 1.27) (end 1.33 1.27) (layer F.SilkS) (width 0.12))
    (fp_line (start -1.33 0) (end -1.33 -1.33) (layer F.SilkS) (width 0.12))
    (fp_line (start -1.33 -1.33) (end 0 -1.33) (layer F.SilkS) (width 0.12))
    (fp_line (start -1.8 -1.8) (end -1.8 6.85) (layer F.CrtYd) (width 0.05))
    (fp_line (start -1.8 6.85) (end 1.8 6.85) (layer F.CrtYd) (width 0.05))
    (fp_line (start 1.8 6.85) (end 1.8 -1.8) (layer F.CrtYd) (width 0.05))
    (fp_line (start 1.8 -1.8) (end -1.8 -1.8) (layer F.CrtYd) (width 0.05))
    (fp_text user %R (at 0 2.54 90) (layer F.Fab)
      (effects (font (size 1 1) (thickness 0.15)))
    )
    (pad 1 thru_hole circle (at 0 0) (size 1.7 1.7) (drill 1) (layers *.Cu *.Mask)
      (net 22 GND))
    (pad 2 thru_hole oval (at 0 2.54) (size 1.7 1.7) (drill 1) (layers *.Cu *.Mask)
      (net 30 5V))
    (pad 3 thru_hole oval (at 0 5.08) (size 1.7 1.7) (drill 1) (layers *.Cu *.Mask)
      (net 29 LDR_S))
    (model ${KISYS3DMOD}/Connector_PinHeader_2.54mm.3dshapes/PinHeader_1x03_P2.54mm_Vertical.wrl
      (at (xyz 0 0 0))
      (scale (xyz 1 1 1))
      (rotate (xyz 0 0 0))
    )
  )

  (module Capacitor_THT:CP_Radial_D4.0mm_P1.50mm (layer F.Cu) (tedit 5AE50EF0) (tstamp 5CE947CB)
    (at 149.5 69 90)
    (descr "CP, Radial series, Radial, pin pitch=1.50mm, , diameter=4mm, Electrolytic Capacitor")
    (tags "CP Radial series Radial pin pitch 1.50mm  diameter 4mm Electrolytic Capacitor")
    (path /5CE828CA)
    (fp_text reference C1 (at 0.75 -3.25 90) (layer F.SilkS)
      (effects (font (size 1 1) (thickness 0.15)))
    )
    (fp_text value "10 uF" (at 0.75 3.25 90) (layer F.Fab)
      (effects (font (size 1 1) (thickness 0.15)))
    )
    (fp_circle (center 0.75 0) (end 2.75 0) (layer F.Fab) (width 0.1))
    (fp_circle (center 0.75 0) (end 2.87 0) (layer F.SilkS) (width 0.12))
    (fp_circle (center 0.75 0) (end 3 0) (layer F.CrtYd) (width 0.05))
    (fp_line (start -0.952554 -0.8675) (end -0.552554 -0.8675) (layer F.Fab) (width 0.1))
    (fp_line (start -0.752554 -1.0675) (end -0.752554 -0.6675) (layer F.Fab) (width 0.1))
    (fp_line (start 0.75 0.84) (end 0.75 2.08) (layer F.SilkS) (width 0.12))
    (fp_line (start 0.75 -2.08) (end 0.75 -0.84) (layer F.SilkS) (width 0.12))
    (fp_line (start 0.79 0.84) (end 0.79 2.08) (layer F.SilkS) (width 0.12))
    (fp_line (start 0.79 -2.08) (end 0.79 -0.84) (layer F.SilkS) (width 0.12))
    (fp_line (start 0.83 0.84) (end 0.83 2.079) (layer F.SilkS) (width 0.12))
    (fp_line (start 0.83 -2.079) (end 0.83 -0.84) (layer F.SilkS) (width 0.12))
    (fp_line (start 0.87 -2.077) (end 0.87 -0.84) (layer F.SilkS) (width 0.12))
    (fp_line (start 0.87 0.84) (end 0.87 2.077) (layer F.SilkS) (width 0.12))
    (fp_line (start 0.91 -2.074) (end 0.91 -0.84) (layer F.SilkS) (width 0.12))
    (fp_line (start 0.91 0.84) (end 0.91 2.074) (layer F.SilkS) (width 0.12))
    (fp_line (start 0.95 -2.071) (end 0.95 -0.84) (layer F.SilkS) (width 0.12))
    (fp_line (start 0.95 0.84) (end 0.95 2.071) (layer F.SilkS) (width 0.12))
    (fp_line (start 0.99 -2.067) (end 0.99 -0.84) (layer F.SilkS) (width 0.12))
    (fp_line (start 0.99 0.84) (end 0.99 2.067) (layer F.SilkS) (width 0.12))
    (fp_line (start 1.03 -2.062) (end 1.03 -0.84) (layer F.SilkS) (width 0.12))
    (fp_line (start 1.03 0.84) (end 1.03 2.062) (layer F.SilkS) (width 0.12))
    (fp_line (start 1.07 -2.056) (end 1.07 -0.84) (layer F.SilkS) (width 0.12))
    (fp_line (start 1.07 0.84) (end 1.07 2.056) (layer F.SilkS) (width 0.12))
    (fp_line (start 1.11 -2.05) (end 1.11 -0.84) (layer F.SilkS) (width 0.12))
    (fp_line (start 1.11 0.84) (end 1.11 2.05) (layer F.SilkS) (width 0.12))
    (fp_line (start 1.15 -2.042) (end 1.15 -0.84) (layer F.SilkS) (width 0.12))
    (fp_line (start 1.15 0.84) (end 1.15 2.042) (layer F.SilkS) (width 0.12))
    (fp_line (start 1.19 -2.034) (end 1.19 -0.84) (layer F.SilkS) (width 0.12))
    (fp_line (start 1.19 0.84) (end 1.19 2.034) (layer F.SilkS) (width 0.12))
    (fp_line (start 1.23 -2.025) (end 1.23 -0.84) (layer F.SilkS) (width 0.12))
    (fp_line (start 1.23 0.84) (end 1.23 2.025) (layer F.SilkS) (width 0.12))
    (fp_line (start 1.27 -2.016) (end 1.27 -0.84) (layer F.SilkS) (width 0.12))
    (fp_line (start 1.27 0.84) (end 1.27 2.016) (layer F.SilkS) (width 0.12))
    (fp_line (start 1.31 -2.005) (end 1.31 -0.84) (layer F.SilkS) (width 0.12))
    (fp_line (start 1.31 0.84) (end 1.31 2.005) (layer F.SilkS) (width 0.12))
    (fp_line (start 1.35 -1.994) (end 1.35 -0.84) (layer F.SilkS) (width 0.12))
    (fp_line (start 1.35 0.84) (end 1.35 1.994) (layer F.SilkS) (width 0.12))
    (fp_line (start 1.39 -1.982) (end 1.39 -0.84) (layer F.SilkS) (width 0.12))
    (fp_line (start 1.39 0.84) (end 1.39 1.982) (layer F.SilkS) (width 0.12))
    (fp_line (start 1.43 -1.968) (end 1.43 -0.84) (layer F.SilkS) (width 0.12))
    (fp_line (start 1.43 0.84) (end 1.43 1.968) (layer F.SilkS) (width 0.12))
    (fp_line (start 1.471 -1.954) (end 1.471 -0.84) (layer F.SilkS) (width 0.12))
    (fp_line (start 1.471 0.84) (end 1.471 1.954) (layer F.SilkS) (width 0.12))
    (fp_line (start 1.511 -1.94) (end 1.511 -0.84) (layer F.SilkS) (width 0.12))
    (fp_line (start 1.511 0.84) (end 1.511 1.94) (layer F.SilkS) (width 0.12))
    (fp_line (start 1.551 -1.924) (end 1.551 -0.84) (layer F.SilkS) (width 0.12))
    (fp_line (start 1.551 0.84) (end 1.551 1.924) (layer F.SilkS) (width 0.12))
    (fp_line (start 1.591 -1.907) (end 1.591 -0.84) (layer F.SilkS) (width 0.12))
    (fp_line (start 1.591 0.84) (end 1.591 1.907) (layer F.SilkS) (width 0.12))
    (fp_line (start 1.631 -1.889) (end 1.631 -0.84) (layer F.SilkS) (width 0.12))
    (fp_line (start 1.631 0.84) (end 1.631 1.889) (layer F.SilkS) (width 0.12))
    (fp_line (start 1.671 -1.87) (end 1.671 -0.84) (layer F.SilkS) (width 0.12))
    (fp_line (start 1.671 0.84) (end 1.671 1.87) (layer F.SilkS) (width 0.12))
    (fp_line (start 1.711 -1.851) (end 1.711 -0.84) (layer F.SilkS) (width 0.12))
    (fp_line (start 1.711 0.84) (end 1.711 1.851) (layer F.SilkS) (width 0.12))
    (fp_line (start 1.751 -1.83) (end 1.751 -0.84) (layer F.SilkS) (width 0.12))
    (fp_line (start 1.751 0.84) (end 1.751 1.83) (layer F.SilkS) (width 0.12))
    (fp_line (start 1.791 -1.808) (end 1.791 -0.84) (layer F.SilkS) (width 0.12))
    (fp_line (start 1.791 0.84) (end 1.791 1.808) (layer F.SilkS) (width 0.12))
    (fp_line (start 1.831 -1.785) (end 1.831 -0.84) (layer F.SilkS) (width 0.12))
    (fp_line (start 1.831 0.84) (end 1.831 1.785) (layer F.SilkS) (width 0.12))
    (fp_line (start 1.871 -1.76) (end 1.871 -0.84) (layer F.SilkS) (width 0.12))
    (fp_line (start 1.871 0.84) (end 1.871 1.76) (layer F.SilkS) (width 0.12))
    (fp_line (start 1.911 -1.735) (end 1.911 -0.84) (layer F.SilkS) (width 0.12))
    (fp_line (start 1.911 0.84) (end 1.911 1.735) (layer F.SilkS) (width 0.12))
    (fp_line (start 1.951 -1.708) (end 1.951 -0.84) (layer F.SilkS) (width 0.12))
    (fp_line (start 1.951 0.84) (end 1.951 1.708) (layer F.SilkS) (width 0.12))
    (fp_line (start 1.991 -1.68) (end 1.991 -0.84) (layer F.SilkS) (width 0.12))
    (fp_line (start 1.991 0.84) (end 1.991 1.68) (layer F.SilkS) (width 0.12))
    (fp_line (start 2.031 -1.65) (end 2.031 -0.84) (layer F.SilkS) (width 0.12))
    (fp_line (start 2.031 0.84) (end 2.031 1.65) (layer F.SilkS) (width 0.12))
    (fp_line (start 2.071 -1.619) (end 2.071 -0.84) (layer F.SilkS) (width 0.12))
    (fp_line (start 2.071 0.84) (end 2.071 1.619) (layer F.SilkS) (width 0.12))
    (fp_line (start 2.111 -1.587) (end 2.111 -0.84) (layer F.SilkS) (width 0.12))
    (fp_line (start 2.111 0.84) (end 2.111 1.587) (layer F.SilkS) (width 0.12))
    (fp_line (start 2.151 -1.552) (end 2.151 -0.84) (layer F.SilkS) (width 0.12))
    (fp_line (start 2.151 0.84) (end 2.151 1.552) (layer F.SilkS) (width 0.12))
    (fp_line (start 2.191 -1.516) (end 2.191 -0.84) (layer F.SilkS) (width 0.12))
    (fp_line (start 2.191 0.84) (end 2.191 1.516) (layer F.SilkS) (width 0.12))
    (fp_line (start 2.231 -1.478) (end 2.231 -0.84) (layer F.SilkS) (width 0.12))
    (fp_line (start 2.231 0.84) (end 2.231 1.478) (layer F.SilkS) (width 0.12))
    (fp_line (start 2.271 -1.438) (end 2.271 -0.84) (layer F.SilkS) (width 0.12))
    (fp_line (start 2.271 0.84) (end 2.271 1.438) (layer F.SilkS) (width 0.12))
    (fp_line (start 2.311 -1.396) (end 2.311 -0.84) (layer F.SilkS) (width 0.12))
    (fp_line (start 2.311 0.84) (end 2.311 1.396) (layer F.SilkS) (width 0.12))
    (fp_line (start 2.351 -1.351) (end 2.351 1.351) (layer F.SilkS) (width 0.12))
    (fp_line (start 2.391 -1.304) (end 2.391 1.304) (layer F.SilkS) (width 0.12))
    (fp_line (start 2.431 -1.254) (end 2.431 1.254) (layer F.SilkS) (width 0.12))
    (fp_line (start 2.471 -1.2) (end 2.471 1.2) (layer F.SilkS) (width 0.12))
    (fp_line (start 2.511 -1.142) (end 2.511 1.142) (layer F.SilkS) (width 0.12))
    (fp_line (start 2.551 -1.08) (end 2.551 1.08) (layer F.SilkS) (width 0.12))
    (fp_line (start 2.591 -1.013) (end 2.591 1.013) (layer F.SilkS) (width 0.12))
    (fp_line (start 2.631 -0.94) (end 2.631 0.94) (layer F.SilkS) (width 0.12))
    (fp_line (start 2.671 -0.859) (end 2.671 0.859) (layer F.SilkS) (width 0.12))
    (fp_line (start 2.711 -0.768) (end 2.711 0.768) (layer F.SilkS) (width 0.12))
    (fp_line (start 2.751 -0.664) (end 2.751 0.664) (layer F.SilkS) (width 0.12))
    (fp_line (start 2.791 -0.537) (end 2.791 0.537) (layer F.SilkS) (width 0.12))
    (fp_line (start 2.831 -0.37) (end 2.831 0.37) (layer F.SilkS) (width 0.12))
    (fp_line (start -1.519801 -1.195) (end -1.119801 -1.195) (layer F.SilkS) (width 0.12))
    (fp_line (start -1.319801 -1.395) (end -1.319801 -0.995) (layer F.SilkS) (width 0.12))
    (fp_text user %R (at 0.75 0 90) (layer F.Fab)
      (effects (font (size 0.8 0.8) (thickness 0.12)))
    )
    (pad 1 thru_hole rect (at 0 0 90) (size 1.2 1.2) (drill 0.6) (layers *.Cu *.Mask)
      (net 32 "Net-(C1-Pad1)"))
    (pad 2 thru_hole circle (at 1.5 0 90) (size 1.2 1.2) (drill 0.6) (layers *.Cu *.Mask)
      (net 22 GND))
    (model ${KISYS3DMOD}/Capacitor_THT.3dshapes/CP_Radial_D4.0mm_P1.50mm.wrl
      (at (xyz 0 0 0))
      (scale (xyz 1 1 1))
      (rotate (xyz 0 0 0))
    )
  )

  (module Button_Switch_THT:SW_DIP_SPSTx01_Slide_6.7x4.1mm_W7.62mm_P2.54mm_LowProfile (layer F.Cu) (tedit 5A4E1404) (tstamp 5CE94FD5)
    (at 149.5 72 270)
    (descr "1x-dip-switch SPST , Slide, row spacing 7.62 mm (300 mils), body size 6.7x4.1mm (see e.g. https://www.ctscorp.com/wp-content/uploads/209-210.pdf), LowProfile")
    (tags "DIP Switch SPST Slide 7.62mm 300mil LowProfile")
    (path /5CE82950)
    (fp_text reference SW1 (at 3.81 3.39 270) (layer F.SilkS)
      (effects (font (size 1 1) (thickness 0.15)))
    )
    (fp_text value SW_DIP_x01 (at 3.81 3.11 270) (layer F.Fab)
      (effects (font (size 1 1) (thickness 0.15)))
    )
    (fp_line (start 1.46 -2.05) (end 7.16 -2.05) (layer F.Fab) (width 0.1))
    (fp_line (start 7.16 -2.05) (end 7.16 2.05) (layer F.Fab) (width 0.1))
    (fp_line (start 7.16 2.05) (end 0.46 2.05) (layer F.Fab) (width 0.1))
    (fp_line (start 0.46 2.05) (end 0.46 -1.05) (layer F.Fab) (width 0.1))
    (fp_line (start 0.46 -1.05) (end 1.46 -2.05) (layer F.Fab) (width 0.1))
    (fp_line (start 2 -0.635) (end 2 0.635) (layer F.Fab) (width 0.1))
    (fp_line (start 2 0.635) (end 5.62 0.635) (layer F.Fab) (width 0.1))
    (fp_line (start 5.62 0.635) (end 5.62 -0.635) (layer F.Fab) (width 0.1))
    (fp_line (start 5.62 -0.635) (end 2 -0.635) (layer F.Fab) (width 0.1))
    (fp_line (start 2 -0.535) (end 3.206667 -0.535) (layer F.Fab) (width 0.1))
    (fp_line (start 2 -0.435) (end 3.206667 -0.435) (layer F.Fab) (width 0.1))
    (fp_line (start 2 -0.335) (end 3.206667 -0.335) (layer F.Fab) (width 0.1))
    (fp_line (start 2 -0.235) (end 3.206667 -0.235) (layer F.Fab) (width 0.1))
    (fp_line (start 2 -0.135) (end 3.206667 -0.135) (layer F.Fab) (width 0.1))
    (fp_line (start 2 -0.035) (end 3.206667 -0.035) (layer F.Fab) (width 0.1))
    (fp_line (start 2 0.065) (end 3.206667 0.065) (layer F.Fab) (width 0.1))
    (fp_line (start 2 0.165) (end 3.206667 0.165) (layer F.Fab) (width 0.1))
    (fp_line (start 2 0.265) (end 3.206667 0.265) (layer F.Fab) (width 0.1))
    (fp_line (start 2 0.365) (end 3.206667 0.365) (layer F.Fab) (width 0.1))
    (fp_line (start 2 0.465) (end 3.206667 0.465) (layer F.Fab) (width 0.1))
    (fp_line (start 2 0.565) (end 3.206667 0.565) (layer F.Fab) (width 0.1))
    (fp_line (start 3.206667 -0.635) (end 3.206667 0.635) (layer F.Fab) (width 0.1))
    (fp_line (start 0.4 -2.11) (end 7.221 -2.11) (layer F.SilkS) (width 0.12))
    (fp_line (start 0.4 2.11) (end 7.221 2.11) (layer F.SilkS) (width 0.12))
    (fp_line (start 0.4 -2.11) (end 0.4 -1.04) (layer F.SilkS) (width 0.12))
    (fp_line (start 0.4 1.04) (end 0.4 2.11) (layer F.SilkS) (width 0.12))
    (fp_line (start 7.221 -2.11) (end 7.221 -0.99) (layer F.SilkS) (width 0.12))
    (fp_line (start 7.221 0.99) (end 7.221 2.11) (layer F.SilkS) (width 0.12))
    (fp_line (start 0.16 -2.35) (end 1.543 -2.35) (layer F.SilkS) (width 0.12))
    (fp_line (start 0.16 -2.35) (end 0.16 -1.04) (layer F.SilkS) (width 0.12))
    (fp_line (start 2 -0.635) (end 2 0.635) (layer F.SilkS) (width 0.12))
    (fp_line (start 2 0.635) (end 5.62 0.635) (layer F.SilkS) (width 0.12))
    (fp_line (start 5.62 0.635) (end 5.62 -0.635) (layer F.SilkS) (width 0.12))
    (fp_line (start 5.62 -0.635) (end 2 -0.635) (layer F.SilkS) (width 0.12))
    (fp_line (start 2 -0.515) (end 3.206667 -0.515) (layer F.SilkS) (width 0.12))
    (fp_line (start 2 -0.395) (end 3.206667 -0.395) (layer F.SilkS) (width 0.12))
    (fp_line (start 2 -0.275) (end 3.206667 -0.275) (layer F.SilkS) (width 0.12))
    (fp_line (start 2 -0.155) (end 3.206667 -0.155) (layer F.SilkS) (width 0.12))
    (fp_line (start 2 -0.035) (end 3.206667 -0.035) (layer F.SilkS) (width 0.12))
    (fp_line (start 2 0.085) (end 3.206667 0.085) (layer F.SilkS) (width 0.12))
    (fp_line (start 2 0.205) (end 3.206667 0.205) (layer F.SilkS) (width 0.12))
    (fp_line (start 2 0.325) (end 3.206667 0.325) (layer F.SilkS) (width 0.12))
    (fp_line (start 2 0.445) (end 3.206667 0.445) (layer F.SilkS) (width 0.12))
    (fp_line (start 2 0.565) (end 3.206667 0.565) (layer F.SilkS) (width 0.12))
    (fp_line (start 3.206667 -0.635) (end 3.206667 0.635) (layer F.SilkS) (width 0.12))
    (fp_line (start -1.1 -2.4) (end -1.1 2.4) (layer F.CrtYd) (width 0.05))
    (fp_line (start -1.1 2.4) (end 8.7 2.4) (layer F.CrtYd) (width 0.05))
    (fp_line (start 8.7 2.4) (end 8.7 -2.4) (layer F.CrtYd) (width 0.05))
    (fp_line (start 8.7 -2.4) (end -1.1 -2.4) (layer F.CrtYd) (width 0.05))
    (fp_text user %R (at 6.39 0) (layer F.Fab)
      (effects (font (size 0.6 0.6) (thickness 0.09)))
    )
    (fp_text user on (at 4.485 -1.3425 270) (layer F.Fab)
      (effects (font (size 0.6 0.6) (thickness 0.09)))
    )
    (pad 1 thru_hole rect (at 0 0 270) (size 1.6 1.6) (drill 0.8) (layers *.Cu *.Mask)
      (net 32 "Net-(C1-Pad1)"))
    (pad 2 thru_hole oval (at 7.62 0 270) (size 1.6 1.6) (drill 0.8) (layers *.Cu *.Mask)
      (net 31 RST))
    (model ${KISYS3DMOD}/Button_Switch_THT.3dshapes/SW_DIP_SPSTx01_Slide_6.7x4.1mm_W7.62mm_P2.54mm_LowProfile.wrl
      (at (xyz 0 0 0))
      (scale (xyz 1 1 1))
      (rotate (xyz 0 0 90))
    )
  )

  (gr_text "on: reset disable\noff: program" (at 146.5 72) (layer F.SilkS)
    (effects (font (size 1 1) (thickness 0.15)) (justify right))
  )
  (gr_text LDR (at 149.5 93.58 90) (layer F.SilkS)
    (effects (font (size 1 1) (thickness 0.15)))
  )
  (gr_text S (at 151.9 90.1) (layer F.SilkS)
    (effects (font (size 1 1) (thickness 0.15)))
  )
  (gr_text + (at 151.9 87.6) (layer F.SilkS)
    (effects (font (size 1 1) (thickness 0.15)))
  )
  (gr_text - (at 151.9 85) (layer F.SilkS)
    (effects (font (size 1 1) (thickness 0.15)))
  )
  (gr_line (start 152.5 55) (end 152.5 101.75) (layer Edge.Cuts) (width 0.15))
  (gr_circle (center 98.5 98.25) (end 101 98.25) (layer F.SilkS) (width 0.5))
  (gr_text 2019 (at 101.5 98.25) (layer F.SilkS) (tstamp 5D0BC960)
    (effects (font (size 1.5 1.5) (thickness 0.3)) (justify left))
  )
  (gr_text AG (at 98.5 98.25) (layer F.SilkS)
    (effects (font (size 2 2) (thickness 0.4)))
  )
  (gr_text VIN (at 140.5 62.5 270) (layer F.SilkS) (tstamp 5CDB969B)
    (effects (font (size 1 1) (thickness 0.15)))
  )
  (gr_text TX (at 112.5 62.5 270) (layer F.SilkS) (tstamp 5CDB912B)
    (effects (font (size 1 1) (thickness 0.15)))
  )
  (gr_text RX (at 115.1 62.5 270) (layer F.SilkS) (tstamp 5CDB907D)
    (effects (font (size 1 1) (thickness 0.15)))
  )
  (gr_text GND (at 117.6 62.5 270) (layer F.SilkS) (tstamp 5CDB8FCF)
    (effects (font (size 1 1) (thickness 0.15)))
  )
  (gr_text GND (at 120.2 62.5 270) (layer F.SilkS) (tstamp 5CDB8F21)
    (effects (font (size 1 1) (thickness 0.15)))
  )
  (gr_text R5V (at 122.7 62.5 270) (layer F.SilkS) (tstamp 5CDB8E73)
    (effects (font (size 1 1) (thickness 0.15)))
  )
  (gr_text REL (at 125.3 62.5 270) (layer F.SilkS) (tstamp 5CDB8DC5)
    (effects (font (size 1 1) (thickness 0.15)))
  )
  (gr_text GND (at 127.8 62.5 270) (layer F.SilkS) (tstamp 5CDB8D17)
    (effects (font (size 1 1) (thickness 0.15)))
  )
  (gr_text LED (at 130.3 62.5 270) (layer F.SilkS) (tstamp 5CDB8C69)
    (effects (font (size 1 1) (thickness 0.15)))
  )
  (gr_text GND (at 132.9 62.5 270) (layer F.SilkS) (tstamp 5CDB8BBB)
    (effects (font (size 1 1) (thickness 0.15)))
  )
  (gr_text SW (at 135.4 62.5 270) (layer F.SilkS) (tstamp 5CDB8B0D)
    (effects (font (size 1 1) (thickness 0.15)))
  )
  (gr_text GND (at 138 62.6 270) (layer F.SilkS)
    (effects (font (size 1 1) (thickness 0.15)))
  )
  (gr_line (start 141.7 60.7) (end 141.7 65.7) (layer F.SilkS) (width 0.2))
  (gr_line (start 136.9 60.7) (end 141.7 60.7) (layer F.SilkS) (width 0.2))
  (gr_line (start 136.9 65.7) (end 136.9 60.7) (layer F.SilkS) (width 0.2))
  (gr_line (start 111.4 60.7) (end 111.4 65.7) (layer F.SilkS) (width 0.2))
  (gr_line (start 136.5 60.7) (end 136.5 65.7) (layer F.SilkS) (width 0.2))
  (gr_line (start 131.8 60.7) (end 136.5 60.7) (layer F.SilkS) (width 0.2))
  (gr_line (start 131.8 65.7) (end 131.8 60.7) (layer F.SilkS) (width 0.2))
  (gr_line (start 131.4 60.7) (end 131.4 65.7) (layer F.SilkS) (width 0.2))
  (gr_line (start 126.7 60.7) (end 131.4 60.7) (layer F.SilkS) (width 0.2))
  (gr_line (start 126.7 65.7) (end 126.7 60.7) (layer F.SilkS) (width 0.2))
  (gr_line (start 126.4 60.7) (end 126.4 65.7) (layer F.SilkS) (width 0.2))
  (gr_line (start 119.1 60.7) (end 126.4 60.7) (layer F.SilkS) (width 0.2))
  (gr_line (start 119.1 65.7) (end 119.1 60.7) (layer F.SilkS) (width 0.2))
  (gr_line (start 111.4 60.7) (end 118.8 60.7) (layer F.SilkS) (width 0.2))
  (gr_line (start 118.8 65.7) (end 118.8 60.7) (layer F.SilkS) (width 0.2))
  (gr_line (start 95 101.75) (end 95 55) (layer Edge.Cuts) (width 0.15))
  (gr_line (start 152.5 101.75) (end 95 101.75) (layer Edge.Cuts) (width 0.15))
  (gr_line (start 152.5 55) (end 95 55) (layer Edge.Cuts) (width 0.15))

  (segment (start 103 74.5) (end 102 75.5) (width 0.5) (layer B.Cu) (net 20))
  (segment (start 103 74.5) (end 104.92499 74.5) (width 0.5) (layer B.Cu) (net 20))
  (segment (start 112.5 67.012081) (end 112.56 66.952081) (width 0.5) (layer B.Cu) (net 20))
  (segment (start 112.5 73.5) (end 112.5 67.012081) (width 0.5) (layer B.Cu) (net 20))
  (segment (start 112.56 66.952081) (end 112.56 65.75) (width 0.5) (layer B.Cu) (net 20))
  (segment (start 111.5 74.5) (end 112.5 73.5) (width 0.5) (layer B.Cu) (net 20))
  (segment (start 104.92499 74.5) (end 111.5 74.5) (width 0.5) (layer B.Cu) (net 20))
  (segment (start 105.5 74.5) (end 104.92499 74.5) (width 0.5) (layer B.Cu) (net 20))
  (segment (start 102 75.5) (end 102 84.5) (width 0.5) (layer B.Cu) (net 20))
  (segment (start 102 84.5) (end 103 85.5) (width 0.5) (layer B.Cu) (net 20))
  (segment (start 103 85.5) (end 142 85.5) (width 0.5) (layer B.Cu) (net 20))
  (segment (start 142 85.5) (end 143 84.5) (width 0.5) (layer B.Cu) (net 20))
  (segment (start 143 84.5) (end 143 80) (width 0.5) (layer B.Cu) (net 20))
  (segment (start 115.1 66.952081) (end 115.1 65.75) (width 0.5) (layer B.Cu) (net 21))
  (segment (start 115.25 67.102081) (end 115.1 66.952081) (width 0.5) (layer B.Cu) (net 21))
  (segment (start 114.25 77) (end 115.25 76) (width 0.5) (layer B.Cu) (net 21))
  (segment (start 104.5 82) (end 104.5 78) (width 0.5) (layer B.Cu) (net 21))
  (segment (start 105.5 83) (end 104.5 82) (width 0.5) (layer B.Cu) (net 21))
  (segment (start 140.5 82) (end 139.5 83) (width 0.5) (layer B.Cu) (net 21))
  (segment (start 115.25 76) (end 115.25 67.102081) (width 0.5) (layer B.Cu) (net 21))
  (segment (start 140.46 81.13137) (end 140.5 81.17137) (width 0.5) (layer B.Cu) (net 21))
  (segment (start 140.5 81.17137) (end 140.5 82) (width 0.5) (layer B.Cu) (net 21))
  (segment (start 105.5 77) (end 114.25 77) (width 0.5) (layer B.Cu) (net 21))
  (segment (start 139.5 83) (end 105.5 83) (width 0.5) (layer B.Cu) (net 21))
  (segment (start 104.5 78) (end 105.5 77) (width 0.5) (layer B.Cu) (net 21))
  (segment (start 140.46 80) (end 140.46 81.13137) (width 0.5) (layer B.Cu) (net 21))
  (segment (start 135.25 67.122081) (end 135.25 75.75) (width 0.5) (layer F.Cu) (net 23))
  (segment (start 132.84 78.16) (end 132.84 80) (width 0.5) (layer F.Cu) (net 23))
  (segment (start 135.42 66.952081) (end 135.25 67.122081) (width 0.5) (layer F.Cu) (net 23))
  (segment (start 135.25 75.75) (end 132.84 78.16) (width 0.5) (layer F.Cu) (net 23))
  (segment (start 135.42 65.75) (end 135.42 66.952081) (width 0.5) (layer F.Cu) (net 23))
  (segment (start 109.98 80) (end 109.98 78.02) (width 0.5) (layer F.Cu) (net 24))
  (segment (start 109.98 78.02) (end 111 77) (width 0.5) (layer F.Cu) (net 24))
  (segment (start 130.25 75.33) (end 130.25 76.319949) (width 0.5) (layer F.Cu) (net 24))
  (segment (start 130.25 76.319949) (end 130.25 76.5) (width 0.5) (layer F.Cu) (net 24))
  (segment (start 130.25 76.5) (end 129.75 77) (width 0.5) (layer F.Cu) (net 24))
  (segment (start 129.75 77) (end 111 77) (width 0.5) (layer F.Cu) (net 24))
  (segment (start 125.26 65.75) (end 125.26 68.74) (width 0.5) (layer B.Cu) (net 25))
  (segment (start 127.76 80) (end 127.76 78.01) (width 0.5) (layer B.Cu) (net 25))
  (segment (start 125.26 75.51) (end 125.26 68.74) (width 0.5) (layer B.Cu) (net 25))
  (segment (start 127.76 78.01) (end 125.26 75.51) (width 0.5) (layer B.Cu) (net 25))
  (segment (start 140.5 68.75) (end 140.5 65.75) (width 1) (layer F.Cu) (net 26))
  (segment (start 143 95.24) (end 143 93.25) (width 1) (layer F.Cu) (net 26))
  (segment (start 143 93.25) (end 144 92.25) (width 1) (layer F.Cu) (net 26))
  (segment (start 144 92.25) (end 145.5 92.25) (width 1) (layer F.Cu) (net 26))
  (segment (start 145.5 92.25) (end 146.5 91.25) (width 1) (layer F.Cu) (net 26))
  (segment (start 146.5 91.25) (end 146.5 70.75) (width 1) (layer F.Cu) (net 26))
  (segment (start 146.5 70.75) (end 145.5 69.75) (width 1) (layer F.Cu) (net 26))
  (segment (start 145.5 69.75) (end 141.5 69.75) (width 1) (layer F.Cu) (net 26))
  (segment (start 141.5 69.75) (end 140.5 68.75) (width 1) (layer F.Cu) (net 26))
  (segment (start 130.34 66.952081) (end 130.34 65.75) (width 0.5) (layer F.Cu) (net 27))
  (segment (start 130.25 67.042081) (end 130.34 66.952081) (width 0.5) (layer F.Cu) (net 27))
  (segment (start 130.25 70.25) (end 130.25 67.042081) (width 0.5) (layer F.Cu) (net 27))
  (segment (start 130.25 79.95) (end 130.3 80) (width 0.25) (layer B.Cu) (net 28))
  (segment (start 132.84 96.37137) (end 132.9 96.43137) (width 0.5) (layer F.Cu) (net 29))
  (segment (start 132.84 95.24) (end 132.84 96.37137) (width 0.5) (layer F.Cu) (net 29))
  (segment (start 132.9 96.43137) (end 132.9 97.3) (width 0.5) (layer F.Cu) (net 29))
  (segment (start 132.9 97.3) (end 133.9 98.3) (width 0.5) (layer F.Cu) (net 29))
  (segment (start 133.9 98.3) (end 148.5 98.3) (width 0.5) (layer F.Cu) (net 29))
  (segment (start 148.5 98.3) (end 149.5 97.3) (width 0.5) (layer F.Cu) (net 29))
  (segment (start 149.5 97.3) (end 149.5 90.08) (width 0.5) (layer F.Cu) (net 29))
  (segment (start 122.72 66.952081) (end 122.75 66.982081) (width 0.5) (layer F.Cu) (net 30))
  (segment (start 122.72 65.75) (end 122.72 66.952081) (width 0.5) (layer F.Cu) (net 30))
  (segment (start 122.75 66.982081) (end 122.75 68.75) (width 0.5) (layer F.Cu) (net 30))
  (segment (start 122.75 68.75) (end 121.75 69.75) (width 0.5) (layer F.Cu) (net 30))
  (segment (start 134.25 92.25) (end 104.25 92.25) (width 0.5) (layer F.Cu) (net 30))
  (segment (start 104.25 92.25) (end 103.25 91.25) (width 0.5) (layer F.Cu) (net 30))
  (segment (start 103.25 91.25) (end 103.25 70.75) (width 0.5) (layer F.Cu) (net 30))
  (segment (start 103.25 70.75) (end 104.25 69.75) (width 0.5) (layer F.Cu) (net 30))
  (segment (start 104.25 69.75) (end 121.75 69.75) (width 0.5) (layer F.Cu) (net 30))
  (segment (start 141.5 88.75) (end 142.71 87.54) (width 0.5) (layer B.Cu) (net 30))
  (segment (start 141.5 91.25) (end 141.5 88.75) (width 0.5) (layer B.Cu) (net 30))
  (segment (start 140.5 92.25) (end 141.5 91.25) (width 0.5) (layer B.Cu) (net 30))
  (segment (start 142.71 87.54) (end 149.5 87.54) (width 0.5) (layer B.Cu) (net 30))
  (segment (start 136.25 92.25) (end 140.5 92.25) (width 0.5) (layer B.Cu) (net 30))
  (segment (start 136.25 92.25) (end 135.38 93.12) (width 0.5) (layer B.Cu) (net 30))
  (segment (start 135.38 93.12) (end 135.38 95.24) (width 0.5) (layer B.Cu) (net 30))
  (segment (start 135.38 95.24) (end 135.38 93.12) (width 0.5) (layer F.Cu) (net 30))
  (segment (start 134.51 92.25) (end 135.38 93.12) (width 0.5) (layer F.Cu) (net 30))
  (segment (start 134.25 92.25) (end 134.51 92.25) (width 0.5) (layer F.Cu) (net 30))
  (segment (start 147.5 79.62) (end 149.5 79.62) (width 0.5) (layer B.Cu) (net 31))
  (segment (start 146.5 78.62) (end 147.5 79.62) (width 0.5) (layer B.Cu) (net 31))
  (segment (start 145.5 77) (end 146.5 78) (width 0.5) (layer B.Cu) (net 31))
  (segment (start 138.92 77) (end 145.5 77) (width 0.5) (layer B.Cu) (net 31))
  (segment (start 146.5 78) (end 146.5 78.62) (width 0.5) (layer B.Cu) (net 31))
  (segment (start 137.92 78) (end 138.92 77) (width 0.5) (layer B.Cu) (net 31))
  (segment (start 137.92 80) (end 137.92 78) (width 0.5) (layer B.Cu) (net 31))
  (segment (start 149.5 70.95) (end 149.5 69) (width 0.5) (layer F.Cu) (net 32))
  (segment (start 149.5 72) (end 149.5 70.95) (width 0.5) (layer F.Cu) (net 32))

  (zone (net 22) (net_name GND) (layer B.Cu) (tstamp 5D0BCFC5) (hatch edge 0.508)
    (connect_pads (clearance 0.508))
    (min_thickness 0.254)
    (fill yes (arc_segments 16) (thermal_gap 0.508) (thermal_bridge_width 0.508))
    (polygon
      (pts
        (xy 95 55) (xy 95 101.75) (xy 152.5 101.75) (xy 152.5 55)
      )
    )
    (filled_polygon
      (pts
        (xy 151.790001 101.04) (xy 95.71 101.04) (xy 95.71 95.24) (xy 105.976887 95.24) (xy 106.08826 95.799909)
        (xy 106.405423 96.274577) (xy 106.880091 96.59174) (xy 107.298667 96.675) (xy 107.581333 96.675) (xy 107.999909 96.59174)
        (xy 108.474577 96.274577) (xy 108.71 95.922242) (xy 108.945423 96.274577) (xy 109.420091 96.59174) (xy 109.838667 96.675)
        (xy 110.121333 96.675) (xy 110.539909 96.59174) (xy 111.014577 96.274577) (xy 111.25 95.922242) (xy 111.485423 96.274577)
        (xy 111.960091 96.59174) (xy 112.378667 96.675) (xy 112.661333 96.675) (xy 113.079909 96.59174) (xy 113.554577 96.274577)
        (xy 113.79 95.922242) (xy 114.025423 96.274577) (xy 114.500091 96.59174) (xy 114.918667 96.675) (xy 115.201333 96.675)
        (xy 115.619909 96.59174) (xy 116.094577 96.274577) (xy 116.33 95.922242) (xy 116.565423 96.274577) (xy 117.040091 96.59174)
        (xy 117.458667 96.675) (xy 117.741333 96.675) (xy 118.159909 96.59174) (xy 118.634577 96.274577) (xy 118.87 95.922242)
        (xy 119.105423 96.274577) (xy 119.580091 96.59174) (xy 119.998667 96.675) (xy 120.281333 96.675) (xy 120.699909 96.59174)
        (xy 121.174577 96.274577) (xy 121.41 95.922242) (xy 121.645423 96.274577) (xy 122.120091 96.59174) (xy 122.538667 96.675)
        (xy 122.821333 96.675) (xy 123.239909 96.59174) (xy 123.714577 96.274577) (xy 123.95 95.922242) (xy 124.185423 96.274577)
        (xy 124.660091 96.59174) (xy 125.078667 96.675) (xy 125.361333 96.675) (xy 125.779909 96.59174) (xy 126.254577 96.274577)
        (xy 126.49 95.922242) (xy 126.725423 96.274577) (xy 127.200091 96.59174) (xy 127.618667 96.675) (xy 127.901333 96.675)
        (xy 128.319909 96.59174) (xy 128.794577 96.274577) (xy 129.03 95.922242) (xy 129.265423 96.274577) (xy 129.740091 96.59174)
        (xy 130.158667 96.675) (xy 130.441333 96.675) (xy 130.859909 96.59174) (xy 131.334577 96.274577) (xy 131.57 95.922242)
        (xy 131.805423 96.274577) (xy 132.280091 96.59174) (xy 132.698667 96.675) (xy 132.981333 96.675) (xy 133.399909 96.59174)
        (xy 133.874577 96.274577) (xy 134.11 95.922242) (xy 134.345423 96.274577) (xy 134.820091 96.59174) (xy 135.238667 96.675)
        (xy 135.521333 96.675) (xy 135.939909 96.59174) (xy 136.414577 96.274577) (xy 136.65 95.922242) (xy 136.885423 96.274577)
        (xy 137.360091 96.59174) (xy 137.778667 96.675) (xy 138.061333 96.675) (xy 138.479909 96.59174) (xy 138.954577 96.274577)
        (xy 139.19 95.922242) (xy 139.425423 96.274577) (xy 139.900091 96.59174) (xy 140.318667 96.675) (xy 140.601333 96.675)
        (xy 141.019909 96.59174) (xy 141.494577 96.274577) (xy 141.73 95.922242) (xy 141.965423 96.274577) (xy 142.440091 96.59174)
        (xy 142.858667 96.675) (xy 143.141333 96.675) (xy 143.559909 96.59174) (xy 144.034577 96.274577) (xy 144.35174 95.799909)
        (xy 144.463113 95.24) (xy 144.35174 94.680091) (xy 144.034577 94.205423) (xy 143.559909 93.88826) (xy 143.141333 93.805)
        (xy 142.858667 93.805) (xy 142.440091 93.88826) (xy 141.965423 94.205423) (xy 141.73 94.557758) (xy 141.494577 94.205423)
        (xy 141.019909 93.88826) (xy 140.601333 93.805) (xy 140.318667 93.805) (xy 139.900091 93.88826) (xy 139.425423 94.205423)
        (xy 139.19 94.557758) (xy 138.954577 94.205423) (xy 138.479909 93.88826) (xy 138.061333 93.805) (xy 137.778667 93.805)
        (xy 137.360091 93.88826) (xy 136.885423 94.205423) (xy 136.65 94.557758) (xy 136.414577 94.205423) (xy 136.265 94.105479)
        (xy 136.265 93.486578) (xy 136.616579 93.135) (xy 140.412839 93.135) (xy 140.5 93.152337) (xy 140.587161 93.135)
        (xy 140.587165 93.135) (xy 140.84531 93.083652) (xy 141.138049 92.888049) (xy 141.187425 92.814153) (xy 142.064156 91.937423)
        (xy 142.138049 91.888049) (xy 142.273158 91.685846) (xy 142.333652 91.59531) (xy 142.356819 91.478839) (xy 142.385 91.337165)
        (xy 142.385 91.337161) (xy 142.402337 91.25) (xy 142.385 91.162839) (xy 142.385 89.116578) (xy 143.076579 88.425)
        (xy 148.305344 88.425) (xy 148.429375 88.610625) (xy 148.727761 88.81) (xy 148.429375 89.009375) (xy 148.101161 89.500582)
        (xy 147.985908 90.08) (xy 148.101161 90.659418) (xy 148.429375 91.150625) (xy 148.920582 91.478839) (xy 149.353744 91.565)
        (xy 149.646256 91.565) (xy 150.079418 91.478839) (xy 150.570625 91.150625) (xy 150.898839 90.659418) (xy 151.014092 90.08)
        (xy 150.898839 89.500582) (xy 150.570625 89.009375) (xy 150.272239 88.81) (xy 150.570625 88.610625) (xy 150.898839 88.119418)
        (xy 151.014092 87.54) (xy 150.898839 86.960582) (xy 150.570625 86.469375) (xy 150.288647 86.280963) (xy 150.364353 86.043958)
        (xy 149.5 85.179605) (xy 148.635647 86.043958) (xy 148.711353 86.280963) (xy 148.429375 86.469375) (xy 148.305344 86.655)
        (xy 142.797159 86.655) (xy 142.709999 86.637663) (xy 142.622839 86.655) (xy 142.622835 86.655) (xy 142.36469 86.706348)
        (xy 142.364688 86.706349) (xy 142.364689 86.706349) (xy 142.145845 86.852576) (xy 142.145844 86.852577) (xy 142.071951 86.901951)
        (xy 142.022577 86.975844) (xy 140.935845 88.062577) (xy 140.861952 88.111951) (xy 140.812578 88.185844) (xy 140.812576 88.185846)
        (xy 140.666348 88.404691) (xy 140.597663 88.75) (xy 140.615001 88.837165) (xy 140.615 90.883421) (xy 140.133422 91.365)
        (xy 136.337161 91.365) (xy 136.25 91.347663) (xy 136.162839 91.365) (xy 136.162835 91.365) (xy 135.90469 91.416348)
        (xy 135.685845 91.562576) (xy 135.685844 91.562577) (xy 135.611951 91.611951) (xy 135.562577 91.685844) (xy 134.815847 92.432575)
        (xy 134.741951 92.481951) (xy 134.546348 92.774691) (xy 134.495 93.032836) (xy 134.495 93.032839) (xy 134.477663 93.12)
        (xy 134.495 93.207161) (xy 134.495 94.105479) (xy 134.345423 94.205423) (xy 134.11 94.557758) (xy 133.874577 94.205423)
        (xy 133.399909 93.88826) (xy 132.981333 93.805) (xy 132.698667 93.805) (xy 132.280091 93.88826) (xy 131.805423 94.205423)
        (xy 131.57 94.557758) (xy 131.334577 94.205423) (xy 130.859909 93.88826) (xy 130.441333 93.805) (xy 130.158667 93.805)
        (xy 129.740091 93.88826) (xy 129.265423 94.205423) (xy 129.03 94.557758) (xy 128.794577 94.205423) (xy 128.319909 93.88826)
        (xy 127.901333 93.805) (xy 127.618667 93.805) (xy 127.200091 93.88826) (xy 126.725423 94.205423) (xy 126.49 94.557758)
        (xy 126.254577 94.205423) (xy 125.779909 93.88826) (xy 125.361333 93.805) (xy 125.078667 93.805) (xy 124.660091 93.88826)
        (xy 124.185423 94.205423) (xy 123.95 94.557758) (xy 123.714577 94.205423) (xy 123.239909 93.88826) (xy 122.821333 93.805)
        (xy 122.538667 93.805) (xy 122.120091 93.88826) (xy 121.645423 94.205423) (xy 121.41 94.557758) (xy 121.174577 94.205423)
        (xy 120.699909 93.88826) (xy 120.281333 93.805) (xy 119.998667 93.805) (xy 119.580091 93.88826) (xy 119.105423 94.205423)
        (xy 118.87 94.557758) (xy 118.634577 94.205423) (xy 118.159909 93.88826) (xy 117.741333 93.805) (xy 117.458667 93.805)
        (xy 117.040091 93.88826) (xy 116.565423 94.205423) (xy 116.33 94.557758) (xy 116.094577 94.205423) (xy 115.619909 93.88826)
        (xy 115.201333 93.805) (xy 114.918667 93.805) (xy 114.500091 93.88826) (xy 114.025423 94.205423) (xy 113.79 94.557758)
        (xy 113.554577 94.205423) (xy 113.079909 93.88826) (xy 112.661333 93.805) (xy 112.378667 93.805) (xy 111.960091 93.88826)
        (xy 111.485423 94.205423) (xy 111.25 94.557758) (xy 111.014577 94.205423) (xy 110.539909 93.88826) (xy 110.121333 93.805)
        (xy 109.838667 93.805) (xy 109.420091 93.88826) (xy 108.945423 94.205423) (xy 108.71 94.557758) (xy 108.474577 94.205423)
        (xy 107.999909 93.88826) (xy 107.581333 93.805) (xy 107.298667 93.805) (xy 106.880091 93.88826) (xy 106.405423 94.205423)
        (xy 106.08826 94.680091) (xy 105.976887 95.24) (xy 95.71 95.24) (xy 95.71 75.5) (xy 101.097663 75.5)
        (xy 101.115 75.587161) (xy 101.115001 84.412835) (xy 101.097663 84.5) (xy 101.166348 84.845309) (xy 101.312576 85.064154)
        (xy 101.312577 85.064155) (xy 101.361952 85.138049) (xy 101.435845 85.187423) (xy 102.312577 86.064156) (xy 102.361951 86.138049)
        (xy 102.435844 86.187423) (xy 102.435845 86.187424) (xy 102.597231 86.295259) (xy 102.65469 86.333652) (xy 102.912835 86.385)
        (xy 102.912839 86.385) (xy 103 86.402337) (xy 103.087161 86.385) (xy 141.912839 86.385) (xy 142 86.402337)
        (xy 142.087161 86.385) (xy 142.087165 86.385) (xy 142.34531 86.333652) (xy 142.638049 86.138049) (xy 142.687425 86.064153)
        (xy 143.564156 85.187423) (xy 143.638049 85.138049) (xy 143.687425 85.064154) (xy 143.833652 84.84531) (xy 143.838608 84.820395)
        (xy 143.848377 84.771279) (xy 148.003282 84.771279) (xy 148.029685 85.361458) (xy 148.204741 85.78408) (xy 148.456042 85.864353)
        (xy 149.320395 85) (xy 149.679605 85) (xy 150.543958 85.864353) (xy 150.795259 85.78408) (xy 150.996718 85.228721)
        (xy 150.970315 84.638542) (xy 150.795259 84.21592) (xy 150.543958 84.135647) (xy 149.679605 85) (xy 149.320395 85)
        (xy 148.456042 84.135647) (xy 148.204741 84.21592) (xy 148.003282 84.771279) (xy 143.848377 84.771279) (xy 143.885 84.587165)
        (xy 143.885 84.587161) (xy 143.902337 84.5) (xy 143.885 84.412839) (xy 143.885 83.956042) (xy 148.635647 83.956042)
        (xy 149.5 84.820395) (xy 150.364353 83.956042) (xy 150.28408 83.704741) (xy 149.728721 83.503282) (xy 149.138542 83.529685)
        (xy 148.71592 83.704741) (xy 148.635647 83.956042) (xy 143.885 83.956042) (xy 143.885 81.430533) (xy 144.047765 81.398157)
        (xy 144.257809 81.257809) (xy 144.398157 81.047765) (xy 144.44744 80.8) (xy 144.44744 79.2) (xy 144.398157 78.952235)
        (xy 144.257809 78.742191) (xy 144.047765 78.601843) (xy 143.8 78.55256) (xy 142.2 78.55256) (xy 141.952235 78.601843)
        (xy 141.742191 78.742191) (xy 141.601843 78.952235) (xy 141.575215 79.086106) (xy 141.494577 78.965423) (xy 141.019909 78.64826)
        (xy 140.601333 78.565) (xy 140.318667 78.565) (xy 139.900091 78.64826) (xy 139.425423 78.965423) (xy 139.19 79.317758)
        (xy 138.954577 78.965423) (xy 138.805 78.865479) (xy 138.805 78.366578) (xy 139.286579 77.885) (xy 145.133422 77.885)
        (xy 145.615 78.366579) (xy 145.615 78.532839) (xy 145.597663 78.62) (xy 145.615 78.707161) (xy 145.615 78.707165)
        (xy 145.627292 78.768959) (xy 145.666348 78.965309) (xy 145.812576 79.184154) (xy 145.812578 79.184156) (xy 145.861952 79.258049)
        (xy 145.935845 79.307423) (xy 146.812577 80.184156) (xy 146.861951 80.258049) (xy 146.935844 80.307423) (xy 146.935845 80.307424)
        (xy 146.998129 80.349041) (xy 147.15469 80.453652) (xy 147.412835 80.505) (xy 147.412839 80.505) (xy 147.5 80.522337)
        (xy 147.587161 80.505) (xy 148.365479 80.505) (xy 148.465423 80.654577) (xy 148.940091 80.97174) (xy 149.358667 81.055)
        (xy 149.641333 81.055) (xy 150.059909 80.97174) (xy 150.534577 80.654577) (xy 150.85174 80.179909) (xy 150.963113 79.62)
        (xy 150.85174 79.060091) (xy 150.534577 78.585423) (xy 150.059909 78.26826) (xy 149.641333 78.185) (xy 149.358667 78.185)
        (xy 148.940091 78.26826) (xy 148.465423 78.585423) (xy 148.365479 78.735) (xy 147.866579 78.735) (xy 147.385 78.253422)
        (xy 147.385 78.087161) (xy 147.402337 78) (xy 147.385 77.912839) (xy 147.385 77.912835) (xy 147.333652 77.65469)
        (xy 147.273158 77.564155) (xy 147.187424 77.435845) (xy 147.187423 77.435844) (xy 147.138049 77.361951) (xy 147.064156 77.312577)
        (xy 146.187424 76.435846) (xy 146.138049 76.361951) (xy 145.84531 76.166348) (xy 145.587165 76.115) (xy 145.587161 76.115)
        (xy 145.5 76.097663) (xy 145.412839 76.115) (xy 139.007161 76.115) (xy 138.92 76.097663) (xy 138.832839 76.115)
        (xy 138.832835 76.115) (xy 138.57469 76.166348) (xy 138.355845 76.312576) (xy 138.355844 76.312577) (xy 138.281951 76.361951)
        (xy 138.232577 76.435844) (xy 137.355845 77.312577) (xy 137.281952 77.361951) (xy 137.232578 77.435844) (xy 137.232576 77.435846)
        (xy 137.086348 77.654691) (xy 137.017663 78) (xy 137.035001 78.087165) (xy 137.035001 78.865478) (xy 136.885423 78.965423)
        (xy 136.629053 79.349108) (xy 136.532389 79.144866) (xy 136.117423 78.768959) (xy 135.729039 78.608096) (xy 135.507 78.730085)
        (xy 135.507 79.873) (xy 135.527 79.873) (xy 135.527 80.127) (xy 135.507 80.127) (xy 135.507 81.269915)
        (xy 135.729039 81.391904) (xy 136.117423 81.231041) (xy 136.532389 80.855134) (xy 136.629053 80.650892) (xy 136.885423 81.034577)
        (xy 137.360091 81.35174) (xy 137.778667 81.435) (xy 138.061333 81.435) (xy 138.479909 81.35174) (xy 138.954577 81.034577)
        (xy 139.19 80.682242) (xy 139.425423 81.034577) (xy 139.559144 81.123926) (xy 139.557663 81.13137) (xy 139.615 81.419628)
        (xy 139.615 81.633421) (xy 139.133422 82.115) (xy 105.866579 82.115) (xy 105.385 81.633422) (xy 105.385 80)
        (xy 105.976887 80) (xy 106.08826 80.559909) (xy 106.405423 81.034577) (xy 106.880091 81.35174) (xy 107.298667 81.435)
        (xy 107.581333 81.435) (xy 107.999909 81.35174) (xy 108.474577 81.034577) (xy 108.71 80.682242) (xy 108.945423 81.034577)
        (xy 109.420091 81.35174) (xy 109.838667 81.435) (xy 110.121333 81.435) (xy 110.539909 81.35174) (xy 111.014577 81.034577)
        (xy 111.25 80.682242) (xy 111.485423 81.034577) (xy 111.960091 81.35174) (xy 112.378667 81.435) (xy 112.661333 81.435)
        (xy 113.079909 81.35174) (xy 113.554577 81.034577) (xy 113.79 80.682242) (xy 114.025423 81.034577) (xy 114.500091 81.35174)
        (xy 114.918667 81.435) (xy 115.201333 81.435) (xy 115.619909 81.35174) (xy 116.094577 81.034577) (xy 116.33 80.682242)
        (xy 116.565423 81.034577) (xy 117.040091 81.35174) (xy 117.458667 81.435) (xy 117.741333 81.435) (xy 118.159909 81.35174)
        (xy 118.634577 81.034577) (xy 118.87 80.682242) (xy 119.105423 81.034577) (xy 119.580091 81.35174) (xy 119.998667 81.435)
        (xy 120.281333 81.435) (xy 120.699909 81.35174) (xy 121.174577 81.034577) (xy 121.41 80.682242) (xy 121.645423 81.034577)
        (xy 122.120091 81.35174) (xy 122.538667 81.435) (xy 122.821333 81.435) (xy 123.239909 81.35174) (xy 123.714577 81.034577)
        (xy 123.95 80.682242) (xy 124.185423 81.034577) (xy 124.660091 81.35174) (xy 125.078667 81.435) (xy 125.361333 81.435)
        (xy 125.779909 81.35174) (xy 126.254577 81.034577) (xy 126.49 80.682242) (xy 126.725423 81.034577) (xy 127.200091 81.35174)
        (xy 127.618667 81.435) (xy 127.901333 81.435) (xy 128.319909 81.35174) (xy 128.794577 81.034577) (xy 129.03 80.682242)
        (xy 129.265423 81.034577) (xy 129.740091 81.35174) (xy 130.158667 81.435) (xy 130.441333 81.435) (xy 130.859909 81.35174)
        (xy 131.334577 81.034577) (xy 131.57 80.682242) (xy 131.805423 81.034577) (xy 132.280091 81.35174) (xy 132.698667 81.435)
        (xy 132.981333 81.435) (xy 133.399909 81.35174) (xy 133.874577 81.034577) (xy 134.130947 80.650892) (xy 134.227611 80.855134)
        (xy 134.642577 81.231041) (xy 135.030961 81.391904) (xy 135.253 81.269915) (xy 135.253 80.127) (xy 135.233 80.127)
        (xy 135.233 79.873) (xy 135.253 79.873) (xy 135.253 78.730085) (xy 135.030961 78.608096) (xy 134.642577 78.768959)
        (xy 134.227611 79.144866) (xy 134.130947 79.349108) (xy 133.874577 78.965423) (xy 133.399909 78.64826) (xy 132.981333 78.565)
        (xy 132.698667 78.565) (xy 132.280091 78.64826) (xy 131.805423 78.965423) (xy 131.57 79.317758) (xy 131.334577 78.965423)
        (xy 130.859909 78.64826) (xy 130.441333 78.565) (xy 130.158667 78.565) (xy 129.740091 78.64826) (xy 129.265423 78.965423)
        (xy 129.03 79.317758) (xy 128.794577 78.965423) (xy 128.645 78.865479) (xy 128.645 78.097161) (xy 128.662337 78.01)
        (xy 128.645 77.922839) (xy 128.645 77.922835) (xy 128.593652 77.66469) (xy 128.398049 77.371951) (xy 128.324156 77.322577)
        (xy 126.331579 75.33) (xy 128.888846 75.33) (xy 128.992458 75.850891) (xy 129.287519 76.292481) (xy 129.729109 76.587542)
        (xy 130.118515 76.665) (xy 130.381485 76.665) (xy 130.770891 76.587542) (xy 131.212481 76.292481) (xy 131.507542 75.850891)
        (xy 131.611154 75.33) (xy 131.507542 74.809109) (xy 131.212481 74.367519) (xy 130.770891 74.072458) (xy 130.381485 73.995)
        (xy 130.118515 73.995) (xy 129.729109 74.072458) (xy 129.287519 74.367519) (xy 128.992458 74.809109) (xy 128.888846 75.33)
        (xy 126.331579 75.33) (xy 126.145 75.143422) (xy 126.145 69.984452) (xy 128.915 69.984452) (xy 128.915 70.515548)
        (xy 129.118242 71.006217) (xy 129.493783 71.381758) (xy 129.984452 71.585) (xy 130.515548 71.585) (xy 131.006217 71.381758)
        (xy 131.187975 71.2) (xy 148.05256 71.2) (xy 148.05256 72.8) (xy 148.101843 73.047765) (xy 148.242191 73.257809)
        (xy 148.452235 73.398157) (xy 148.7 73.44744) (xy 150.3 73.44744) (xy 150.547765 73.398157) (xy 150.757809 73.257809)
        (xy 150.898157 73.047765) (xy 150.94744 72.8) (xy 150.94744 71.2) (xy 150.898157 70.952235) (xy 150.757809 70.742191)
        (xy 150.547765 70.601843) (xy 150.3 70.55256) (xy 148.7 70.55256) (xy 148.452235 70.601843) (xy 148.242191 70.742191)
        (xy 148.101843 70.952235) (xy 148.05256 71.2) (xy 131.187975 71.2) (xy 131.381758 71.006217) (xy 131.585 70.515548)
        (xy 131.585 69.984452) (xy 131.381758 69.493783) (xy 131.006217 69.118242) (xy 130.515548 68.915) (xy 129.984452 68.915)
        (xy 129.493783 69.118242) (xy 129.118242 69.493783) (xy 128.915 69.984452) (xy 126.145 69.984452) (xy 126.145 67.331036)
        (xy 148.252193 67.331036) (xy 148.282518 67.821413) (xy 148.374505 68.04349) (xy 148.301843 68.152235) (xy 148.25256 68.4)
        (xy 148.25256 69.6) (xy 148.301843 69.847765) (xy 148.442191 70.057809) (xy 148.652235 70.198157) (xy 148.9 70.24744)
        (xy 150.1 70.24744) (xy 150.347765 70.198157) (xy 150.557809 70.057809) (xy 150.698157 69.847765) (xy 150.74744 69.6)
        (xy 150.74744 68.4) (xy 150.698157 68.152235) (xy 150.621291 68.037198) (xy 150.747807 67.668964) (xy 150.717482 67.178587)
        (xy 150.588164 66.866383) (xy 150.362735 66.81687) (xy 149.679605 67.5) (xy 149.693748 67.514143) (xy 149.514143 67.693748)
        (xy 149.5 67.679605) (xy 149.485858 67.693748) (xy 149.306253 67.514143) (xy 149.320395 67.5) (xy 148.637265 66.81687)
        (xy 148.411836 66.866383) (xy 148.252193 67.331036) (xy 126.145 67.331036) (xy 126.145 66.944656) (xy 126.330625 66.820625)
        (xy 126.543843 66.501522) (xy 126.604817 66.631358) (xy 127.033076 67.021645) (xy 127.44311 67.191476) (xy 127.673 67.070155)
        (xy 127.673 65.877) (xy 127.653 65.877) (xy 127.653 65.623) (xy 127.673 65.623) (xy 127.673 64.429845)
        (xy 127.927 64.429845) (xy 127.927 65.623) (xy 127.947 65.623) (xy 127.947 65.877) (xy 127.927 65.877)
        (xy 127.927 67.070155) (xy 128.15689 67.191476) (xy 128.566924 67.021645) (xy 128.995183 66.631358) (xy 129.056157 66.501522)
        (xy 129.269375 66.820625) (xy 129.760582 67.148839) (xy 130.193744 67.235) (xy 130.486256 67.235) (xy 130.919418 67.148839)
        (xy 131.410625 66.820625) (xy 131.623843 66.501522) (xy 131.684817 66.631358) (xy 132.113076 67.021645) (xy 132.52311 67.191476)
        (xy 132.753 67.070155) (xy 132.753 65.877) (xy 132.733 65.877) (xy 132.733 65.623) (xy 132.753 65.623)
        (xy 132.753 64.429845) (xy 133.007 64.429845) (xy 133.007 65.623) (xy 133.027 65.623) (xy 133.027 65.877)
        (xy 133.007 65.877) (xy 133.007 67.070155) (xy 133.23689 67.191476) (xy 133.646924 67.021645) (xy 134.075183 66.631358)
        (xy 134.136157 66.501522) (xy 134.349375 66.820625) (xy 134.840582 67.148839) (xy 135.273744 67.235) (xy 135.566256 67.235)
        (xy 135.999418 67.148839) (xy 136.490625 66.820625) (xy 136.703843 66.501522) (xy 136.764817 66.631358) (xy 137.193076 67.021645)
        (xy 137.60311 67.191476) (xy 137.833 67.070155) (xy 137.833 65.877) (xy 137.813 65.877) (xy 137.813 65.623)
        (xy 137.833 65.623) (xy 137.833 64.429845) (xy 138.087 64.429845) (xy 138.087 65.623) (xy 138.107 65.623)
        (xy 138.107 65.877) (xy 138.087 65.877) (xy 138.087 67.070155) (xy 138.31689 67.191476) (xy 138.726924 67.021645)
        (xy 139.155183 66.631358) (xy 139.209665 66.515347) (xy 139.241078 66.591185) (xy 139.658815 67.008922) (xy 140.204615 67.235)
        (xy 140.795385 67.235) (xy 141.341185 67.008922) (xy 141.712842 66.637265) (xy 148.81687 66.637265) (xy 149.5 67.320395)
        (xy 150.18313 66.637265) (xy 150.133617 66.411836) (xy 149.668964 66.252193) (xy 149.178587 66.282518) (xy 148.866383 66.411836)
        (xy 148.81687 66.637265) (xy 141.712842 66.637265) (xy 141.758922 66.591185) (xy 141.985 66.045385) (xy 141.985 65.454615)
        (xy 141.758922 64.908815) (xy 141.341185 64.491078) (xy 140.795385 64.265) (xy 140.204615 64.265) (xy 139.658815 64.491078)
        (xy 139.241078 64.908815) (xy 139.209665 64.984653) (xy 139.155183 64.868642) (xy 138.726924 64.478355) (xy 138.31689 64.308524)
        (xy 138.087 64.429845) (xy 137.833 64.429845) (xy 137.60311 64.308524) (xy 137.193076 64.478355) (xy 136.764817 64.868642)
        (xy 136.703843 64.998478) (xy 136.490625 64.679375) (xy 135.999418 64.351161) (xy 135.566256 64.265) (xy 135.273744 64.265)
        (xy 134.840582 64.351161) (xy 134.349375 64.679375) (xy 134.136157 64.998478) (xy 134.075183 64.868642) (xy 133.646924 64.478355)
        (xy 133.23689 64.308524) (xy 133.007 64.429845) (xy 132.753 64.429845) (xy 132.52311 64.308524) (xy 132.113076 64.478355)
        (xy 131.684817 64.868642) (xy 131.623843 64.998478) (xy 131.410625 64.679375) (xy 130.919418 64.351161) (xy 130.486256 64.265)
        (xy 130.193744 64.265) (xy 129.760582 64.351161) (xy 129.269375 64.679375) (xy 129.056157 64.998478) (xy 128.995183 64.868642)
        (xy 128.566924 64.478355) (xy 128.15689 64.308524) (xy 127.927 64.429845) (xy 127.673 64.429845) (xy 127.44311 64.308524)
        (xy 127.033076 64.478355) (xy 126.604817 64.868642) (xy 126.543843 64.998478) (xy 126.330625 64.679375) (xy 125.839418 64.351161)
        (xy 125.406256 64.265) (xy 125.113744 64.265) (xy 124.680582 64.351161) (xy 124.189375 64.679375) (xy 123.99 64.977761)
        (xy 123.790625 64.679375) (xy 123.299418 64.351161) (xy 122.866256 64.265) (xy 122.573744 64.265) (xy 122.140582 64.351161)
        (xy 121.649375 64.679375) (xy 121.436157 64.998478) (xy 121.375183 64.868642) (xy 120.946924 64.478355) (xy 120.53689 64.308524)
        (xy 120.307 64.429845) (xy 120.307 65.623) (xy 120.327 65.623) (xy 120.327 65.877) (xy 120.307 65.877)
        (xy 120.307 67.070155) (xy 120.53689 67.191476) (xy 120.946924 67.021645) (xy 121.375183 66.631358) (xy 121.436157 66.501522)
        (xy 121.649375 66.820625) (xy 122.140582 67.148839) (xy 122.573744 67.235) (xy 122.866256 67.235) (xy 123.299418 67.148839)
        (xy 123.790625 66.820625) (xy 123.99 66.522239) (xy 124.189375 66.820625) (xy 124.375 66.944656) (xy 124.375001 68.652835)
        (xy 124.375 75.422839) (xy 124.357663 75.51) (xy 124.375 75.597161) (xy 124.375 75.597164) (xy 124.426348 75.855309)
        (xy 124.621951 76.148049) (xy 124.695847 76.197425) (xy 126.875001 78.37658) (xy 126.875001 78.865478) (xy 126.725423 78.965423)
        (xy 126.49 79.317758) (xy 126.254577 78.965423) (xy 125.779909 78.64826) (xy 125.361333 78.565) (xy 125.078667 78.565)
        (xy 124.660091 78.64826) (xy 124.185423 78.965423) (xy 123.95 79.317758) (xy 123.714577 78.965423) (xy 123.239909 78.64826)
        (xy 122.821333 78.565) (xy 122.538667 78.565) (xy 122.120091 78.64826) (xy 121.645423 78.965423) (xy 121.41 79.317758)
        (xy 121.174577 78.965423) (xy 120.699909 78.64826) (xy 120.281333 78.565) (xy 119.998667 78.565) (xy 119.580091 78.64826)
        (xy 119.105423 78.965423) (xy 118.87 79.317758) (xy 118.634577 78.965423) (xy 118.159909 78.64826) (xy 117.741333 78.565)
        (xy 117.458667 78.565) (xy 117.040091 78.64826) (xy 116.565423 78.965423) (xy 116.33 79.317758) (xy 116.094577 78.965423)
        (xy 115.619909 78.64826) (xy 115.201333 78.565) (xy 114.918667 78.565) (xy 114.500091 78.64826) (xy 114.025423 78.965423)
        (xy 113.79 79.317758) (xy 113.554577 78.965423) (xy 113.079909 78.64826) (xy 112.661333 78.565) (xy 112.378667 78.565)
        (xy 111.960091 78.64826) (xy 111.485423 78.965423) (xy 111.25 79.317758) (xy 111.014577 78.965423) (xy 110.539909 78.64826)
        (xy 110.121333 78.565) (xy 109.838667 78.565) (xy 109.420091 78.64826) (xy 108.945423 78.965423) (xy 108.71 79.317758)
        (xy 108.474577 78.965423) (xy 107.999909 78.64826) (xy 107.581333 78.565) (xy 107.298667 78.565) (xy 106.880091 78.64826)
        (xy 106.405423 78.965423) (xy 106.08826 79.440091) (xy 105.976887 80) (xy 105.385 80) (xy 105.385 78.366578)
        (xy 105.866579 77.885) (xy 114.162839 77.885) (xy 114.25 77.902337) (xy 114.337161 77.885) (xy 114.337165 77.885)
        (xy 114.59531 77.833652) (xy 114.888049 77.638049) (xy 114.937425 77.564153) (xy 115.814156 76.687423) (xy 115.888049 76.638049)
        (xy 116.023158 76.435846) (xy 116.083652 76.34531) (xy 116.115057 76.187424) (xy 116.135 76.087165) (xy 116.135 76.087161)
        (xy 116.152337 76) (xy 116.135 75.912839) (xy 116.135 67.189241) (xy 116.152337 67.10208) (xy 116.135 67.01492)
        (xy 116.135 67.014916) (xy 116.105067 66.86443) (xy 116.170625 66.820625) (xy 116.383843 66.501522) (xy 116.444817 66.631358)
        (xy 116.873076 67.021645) (xy 117.28311 67.191476) (xy 117.513 67.070155) (xy 117.513 65.877) (xy 117.767 65.877)
        (xy 117.767 67.070155) (xy 117.99689 67.191476) (xy 118.406924 67.021645) (xy 118.835183 66.631358) (xy 118.91 66.472046)
        (xy 118.984817 66.631358) (xy 119.413076 67.021645) (xy 119.82311 67.191476) (xy 120.053 67.070155) (xy 120.053 65.877)
        (xy 117.767 65.877) (xy 117.513 65.877) (xy 117.493 65.877) (xy 117.493 65.623) (xy 117.513 65.623)
        (xy 117.513 64.429845) (xy 117.767 64.429845) (xy 117.767 65.623) (xy 120.053 65.623) (xy 120.053 64.429845)
        (xy 119.82311 64.308524) (xy 119.413076 64.478355) (xy 118.984817 64.868642) (xy 118.91 65.027954) (xy 118.835183 64.868642)
        (xy 118.406924 64.478355) (xy 117.99689 64.308524) (xy 117.767 64.429845) (xy 117.513 64.429845) (xy 117.28311 64.308524)
        (xy 116.873076 64.478355) (xy 116.444817 64.868642) (xy 116.383843 64.998478) (xy 116.170625 64.679375) (xy 115.679418 64.351161)
        (xy 115.246256 64.265) (xy 114.953744 64.265) (xy 114.520582 64.351161) (xy 114.029375 64.679375) (xy 113.83 64.977761)
        (xy 113.630625 64.679375) (xy 113.139418 64.351161) (xy 112.706256 64.265) (xy 112.413744 64.265) (xy 111.980582 64.351161)
        (xy 111.489375 64.679375) (xy 111.161161 65.170582) (xy 111.045908 65.75) (xy 111.161161 66.329418) (xy 111.489375 66.820625)
        (xy 111.618574 66.906953) (xy 111.597663 67.012081) (xy 111.615001 67.099246) (xy 111.615 73.133421) (xy 111.133422 73.615)
        (xy 103.087161 73.615) (xy 103 73.597663) (xy 102.912839 73.615) (xy 102.912835 73.615) (xy 102.65469 73.666348)
        (xy 102.435845 73.812576) (xy 102.435844 73.812577) (xy 102.361951 73.861951) (xy 102.312577 73.935844) (xy 101.435847 74.812575)
        (xy 101.361951 74.861951) (xy 101.166348 75.154691) (xy 101.115 75.412836) (xy 101.115 75.412839) (xy 101.097663 75.5)
        (xy 95.71 75.5) (xy 95.71 59.475866) (xy 97.365 59.475866) (xy 97.365 60.524134) (xy 97.766155 61.492608)
        (xy 98.507392 62.233845) (xy 99.475866 62.635) (xy 100.524134 62.635) (xy 101.492608 62.233845) (xy 102.233845 61.492608)
        (xy 102.635 60.524134) (xy 102.635 59.475866) (xy 144.865 59.475866) (xy 144.865 60.524134) (xy 145.266155 61.492608)
        (xy 146.007392 62.233845) (xy 146.975866 62.635) (xy 148.024134 62.635) (xy 148.992608 62.233845) (xy 149.733845 61.492608)
        (xy 150.135 60.524134) (xy 150.135 59.475866) (xy 149.733845 58.507392) (xy 148.992608 57.766155) (xy 148.024134 57.365)
        (xy 146.975866 57.365) (xy 146.007392 57.766155) (xy 145.266155 58.507392) (xy 144.865 59.475866) (xy 102.635 59.475866)
        (xy 102.233845 58.507392) (xy 101.492608 57.766155) (xy 100.524134 57.365) (xy 99.475866 57.365) (xy 98.507392 57.766155)
        (xy 97.766155 58.507392) (xy 97.365 59.475866) (xy 95.71 59.475866) (xy 95.71 55.71) (xy 151.79 55.71)
      )
    )
  )
)
