(export (version D)
  (design
    (source "/Users/andrej/Projects/gitlab/minidsp-preamp/pcb/amp control right/amp control right.sch")
    (date "2019 September 13, Friday 07:44:37")
    (tool "Eeschema (5.0.0-3-g5ebb6b6)")
    (sheet (number 1) (name /) (tstamps /)
      (title_block
        (title)
        (company)
        (rev)
        (date)
        (source "amp control right.sch")
        (comment (number 1) (value ""))
        (comment (number 2) (value ""))
        (comment (number 3) (value ""))
        (comment (number 4) (value "")))))
  (components
    (comp (ref A1)
      (value Arduino-Right)
      (footprint Module:Arduino_Nano)
      (datasheet http://www.mouser.com/pdfdocs/Gravitech_Arduino_Nano3_0.pdf)
      (libsource (lib MCU_Module) (part Arduino_Nano_v3.x) (description "Arduino Nano v3.x"))
      (sheetpath (names /) (tstamps /))
      (tstamp 5CD7CB24))
    (comp (ref R1)
      (value "750 Ohm +/- 10%")
      (footprint Resistor_THT:R_Axial_DIN0204_L3.6mm_D1.6mm_P5.08mm_Vertical)
      (datasheet ~)
      (libsource (lib Device) (part R) (description Resistor))
      (sheetpath (names /) (tstamps /))
      (tstamp 5CD7DA4F))
    (comp (ref J1)
      (value CTRL-Right)
      (footprint Connector_PinHeader_2.54mm:PinHeader_1x12_P2.54mm_Vertical)
      (datasheet ~)
      (libsource (lib Connector) (part Conn_01x12_Male) (description "Generic connector, single row, 01x12, script generated (kicad-library-utils/schlib/autogen/connector/)"))
      (sheetpath (names /) (tstamps /))
      (tstamp 5CD86407))
    (comp (ref J2)
      (value LDR-Right)
      (footprint Connector_PinHeader_2.54mm:PinHeader_1x03_P2.54mm_Vertical)
      (datasheet ~)
      (libsource (lib Connector) (part Conn_01x03_Male) (description "Generic connector, single row, 01x03, script generated (kicad-library-utils/schlib/autogen/connector/)"))
      (sheetpath (names /) (tstamps /))
      (tstamp 5CE8091A))
    (comp (ref SW1)
      (value SW_DIP_x01)
      (footprint Button_Switch_THT:SW_DIP_SPSTx01_Slide_6.7x4.1mm_W7.62mm_P2.54mm_LowProfile)
      (libsource (lib Switch) (part SW_DIP_x01) (description "1x DIP Switch, Single Pole Single Throw (SPST) switch, small symbol"))
      (sheetpath (names /) (tstamps /))
      (tstamp 5CE82062))
    (comp (ref C1)
      (value "10 uF")
      (footprint Capacitor_THT:CP_Radial_D4.0mm_P1.50mm)
      (datasheet ~)
      (libsource (lib Device) (part CP) (description "Polarised capacitor"))
      (sheetpath (names /) (tstamps /))
      (tstamp 5CE82101)))
  (libparts
    (libpart (lib Connector) (part Conn_01x03_Male)
      (description "Generic connector, single row, 01x03, script generated (kicad-library-utils/schlib/autogen/connector/)")
      (docs ~)
      (footprints
        (fp Connector*:*_1x??_*))
      (fields
        (field (name Reference) J)
        (field (name Value) Conn_01x03_Male))
      (pins
        (pin (num 1) (name Pin_1) (type passive))
        (pin (num 2) (name Pin_2) (type passive))
        (pin (num 3) (name Pin_3) (type passive))))
    (libpart (lib Connector) (part Conn_01x12_Male)
      (description "Generic connector, single row, 01x12, script generated (kicad-library-utils/schlib/autogen/connector/)")
      (docs ~)
      (footprints
        (fp Connector*:*_1x??_*))
      (fields
        (field (name Reference) J)
        (field (name Value) Conn_01x12_Male))
      (pins
        (pin (num 1) (name Pin_1) (type passive))
        (pin (num 2) (name Pin_2) (type passive))
        (pin (num 3) (name Pin_3) (type passive))
        (pin (num 4) (name Pin_4) (type passive))
        (pin (num 5) (name Pin_5) (type passive))
        (pin (num 6) (name Pin_6) (type passive))
        (pin (num 7) (name Pin_7) (type passive))
        (pin (num 8) (name Pin_8) (type passive))
        (pin (num 9) (name Pin_9) (type passive))
        (pin (num 10) (name Pin_10) (type passive))
        (pin (num 11) (name Pin_11) (type passive))
        (pin (num 12) (name Pin_12) (type passive))))
    (libpart (lib Device) (part CP)
      (description "Polarised capacitor")
      (docs ~)
      (footprints
        (fp CP_*))
      (fields
        (field (name Reference) C)
        (field (name Value) CP))
      (pins
        (pin (num 1) (name ~) (type passive))
        (pin (num 2) (name ~) (type passive))))
    (libpart (lib Device) (part R)
      (description Resistor)
      (docs ~)
      (footprints
        (fp R_*))
      (fields
        (field (name Reference) R)
        (field (name Value) R))
      (pins
        (pin (num 1) (name ~) (type passive))
        (pin (num 2) (name ~) (type passive))))
    (libpart (lib MCU_Module) (part Arduino_Nano_v3.x)
      (aliases
        (alias Arduino_Nano_v2.x))
      (description "Arduino Nano v3.x")
      (docs http://www.mouser.com/pdfdocs/Gravitech_Arduino_Nano3_0.pdf)
      (footprints
        (fp Arduino*Nano*))
      (fields
        (field (name Reference) A)
        (field (name Value) Arduino_Nano_v3.x)
        (field (name Footprint) Module:Arduino_Nano))
      (pins
        (pin (num 1) (name D1/TX) (type BiDi))
        (pin (num 2) (name D0/RX) (type BiDi))
        (pin (num 3) (name RESET) (type input))
        (pin (num 4) (name GND) (type power_in))
        (pin (num 5) (name D2) (type BiDi))
        (pin (num 6) (name D3) (type BiDi))
        (pin (num 7) (name D4) (type BiDi))
        (pin (num 8) (name D5) (type BiDi))
        (pin (num 9) (name D6) (type BiDi))
        (pin (num 10) (name D7) (type BiDi))
        (pin (num 11) (name D8) (type BiDi))
        (pin (num 12) (name D9) (type BiDi))
        (pin (num 13) (name D10) (type BiDi))
        (pin (num 14) (name D11) (type BiDi))
        (pin (num 15) (name D12) (type BiDi))
        (pin (num 16) (name D13) (type BiDi))
        (pin (num 17) (name 3V3) (type power_out))
        (pin (num 18) (name AREF) (type input))
        (pin (num 19) (name A0) (type BiDi))
        (pin (num 20) (name A1) (type BiDi))
        (pin (num 21) (name A2) (type BiDi))
        (pin (num 22) (name A3) (type BiDi))
        (pin (num 23) (name A4) (type BiDi))
        (pin (num 24) (name A5) (type BiDi))
        (pin (num 25) (name A6) (type BiDi))
        (pin (num 26) (name A7) (type BiDi))
        (pin (num 27) (name +5V) (type power_out))
        (pin (num 28) (name RESET) (type input))
        (pin (num 29) (name GND) (type power_in))
        (pin (num 30) (name VIN) (type power_in))))
    (libpart (lib Switch) (part SW_DIP_x01)
      (description "1x DIP Switch, Single Pole Single Throw (SPST) switch, small symbol")
      (footprints
        (fp SW?DIP?x1*))
      (fields
        (field (name Reference) SW)
        (field (name Value) SW_DIP_x01))
      (pins
        (pin (num 1) (name ~) (type passive))
        (pin (num 2) (name ~) (type passive)))))
  (libraries
    (library (logical Connector)
      (uri "/Library/Application Support/kicad/library/Connector.lib"))
    (library (logical Device)
      (uri "/Library/Application Support/kicad/library/Device.lib"))
    (library (logical MCU_Module)
      (uri "/Library/Application Support/kicad/library/MCU_Module.lib"))
    (library (logical Switch)
      (uri "/Library/Application Support/kicad/library/Switch.lib")))
  (nets
    (net (code 1) (name "Net-(A1-Pad10)")
      (node (ref A1) (pin 10)))
    (net (code 2) (name "Net-(A1-Pad12)")
      (node (ref A1) (pin 12)))
    (net (code 3) (name "Net-(A1-Pad15)")
      (node (ref A1) (pin 15)))
    (net (code 4) (name "Net-(A1-Pad16)")
      (node (ref A1) (pin 16)))
    (net (code 5) (name "Net-(A1-Pad17)")
      (node (ref A1) (pin 17)))
    (net (code 6) (name "Net-(A1-Pad18)")
      (node (ref A1) (pin 18)))
    (net (code 7) (name "Net-(A1-Pad19)")
      (node (ref A1) (pin 19)))
    (net (code 8) (name "Net-(A1-Pad20)")
      (node (ref A1) (pin 20)))
    (net (code 9) (name "Net-(A1-Pad21)")
      (node (ref A1) (pin 21)))
    (net (code 10) (name "Net-(A1-Pad22)")
      (node (ref A1) (pin 22)))
    (net (code 11) (name "Net-(A1-Pad23)")
      (node (ref A1) (pin 23)))
    (net (code 12) (name "Net-(A1-Pad24)")
      (node (ref A1) (pin 24)))
    (net (code 13) (name "Net-(A1-Pad26)")
      (node (ref A1) (pin 26)))
    (net (code 14) (name RST)
      (node (ref A1) (pin 28))
      (node (ref SW1) (pin 2)))
    (net (code 15) (name "Net-(A1-Pad3)")
      (node (ref A1) (pin 3)))
    (net (code 16) (name "Net-(A1-Pad4)")
      (node (ref A1) (pin 4)))
    (net (code 17) (name "Net-(A1-Pad5)")
      (node (ref A1) (pin 5)))
    (net (code 18) (name "Net-(A1-Pad6)")
      (node (ref A1) (pin 6)))
    (net (code 19) (name "Net-(A1-Pad7)")
      (node (ref A1) (pin 7)))
    (net (code 20) (name "Net-(A1-Pad8)")
      (node (ref A1) (pin 8)))
    (net (code 21) (name "Net-(A1-Pad9)")
      (node (ref A1) (pin 9)))
    (net (code 22) (name PowerLedR)
      (node (ref R1) (pin 1))
      (node (ref J1) (pin 8)))
    (net (code 23) (name PowerLed)
      (node (ref A1) (pin 14))
      (node (ref R1) (pin 2)))
    (net (code 24) (name RX)
      (node (ref J1) (pin 1))
      (node (ref A1) (pin 2)))
    (net (code 25) (name PowerSwitch)
      (node (ref A1) (pin 11))
      (node (ref J1) (pin 10)))
    (net (code 26) (name GND)
      (node (ref C1) (pin 2))
      (node (ref J2) (pin 1))
      (node (ref A1) (pin 29))
      (node (ref J1) (pin 9))
      (node (ref J1) (pin 7))
      (node (ref J1) (pin 11))
      (node (ref J1) (pin 4))
      (node (ref J1) (pin 3)))
    (net (code 27) (name VIN)
      (node (ref A1) (pin 30))
      (node (ref J1) (pin 12)))
    (net (code 28) (name TX)
      (node (ref J1) (pin 2))
      (node (ref A1) (pin 1)))
    (net (code 29) (name 5V)
      (node (ref J1) (pin 5))
      (node (ref A1) (pin 27))
      (node (ref J2) (pin 2)))
    (net (code 30) (name Relay)
      (node (ref J1) (pin 6))
      (node (ref A1) (pin 13)))
    (net (code 31) (name LDR_S)
      (node (ref A1) (pin 25))
      (node (ref J2) (pin 3)))
    (net (code 32) (name "Net-(C1-Pad1)")
      (node (ref SW1) (pin 1))
      (node (ref C1) (pin 1)))))