(module Cliff_OTJ-5 (layer F.Cu) (tedit 5944FCB5)
  (fp_text reference REF** (at 0 7) (layer F.SilkS)
    (effects (font (size 1 1) (thickness 0.15)))
  )
  (fp_text value Cliff_OTJ-5 (at 0 -7) (layer F.Fab)
    (effects (font (size 1 1) (thickness 0.15)))
  )
  (fp_line (start 3.5 5.75) (end -8.5 5.75) (layer F.SilkS) (width 0.15))
  (fp_line (start 3.5 -5.75) (end 3.5 5.75) (layer F.SilkS) (width 0.15))
  (fp_line (start -8.5 -5.75) (end 3.5 -5.75) (layer F.SilkS) (width 0.15))
  (fp_line (start -8.5 -5.75) (end -8.5 5.75) (layer F.SilkS) (width 0.15))
  (fp_text user GND (at 2 2.54) (layer F.SilkS)
    (effects (font (size 0.7 0.7) (thickness 0.1)))
  )
  (fp_text user Vcc (at 2 0) (layer F.SilkS)
    (effects (font (size 0.7 0.7) (thickness 0.1)))
  )
  (fp_text user Vin (at 2 -2.54) (layer F.SilkS)
    (effects (font (size 0.7 0.7) (thickness 0.1)))
  )
  (fp_text user Vin (at 2 -2.54) (layer B.SilkS)
    (effects (font (size 0.7 0.7) (thickness 0.1)) (justify mirror))
  )
  (fp_text user Vcc (at 2 0) (layer B.SilkS)
    (effects (font (size 0.7 0.7) (thickness 0.1)) (justify mirror))
  )
  (fp_text user GND (at 2 2.54) (layer B.SilkS)
    (effects (font (size 0.7 0.7) (thickness 0.1)) (justify mirror))
  )
  (pad 2 thru_hole circle (at 0 0) (size 1.524 1.524) (drill 0.762) (layers *.Cu *.Mask))
  (pad 3 thru_hole circle (at 0 -2.54) (size 1.524 1.524) (drill 0.762) (layers *.Cu *.Mask))
  (pad 1 thru_hole circle (at 0 2.53) (size 1.524 1.524) (drill 0.762) (layers *.Cu *.Mask))
  (pad "" np_thru_hole circle (at -3.9 0) (size 2 2) (drill 2) (layers *.Cu *.Mask))
  (pad "" np_thru_hole circle (at 2.1 4.6) (size 2 2) (drill 2) (layers *.Cu *.Mask))
  (pad "" np_thru_hole circle (at 2.1 -4.6) (size 2 2) (drill 2) (layers *.Cu *.Mask))
)
