G04 #@! TF.GenerationSoftware,KiCad,Pcbnew,(5.0.0-3-g5ebb6b6)*
G04 #@! TF.CreationDate,2019-10-14T08:47:04+02:00*
G04 #@! TF.ProjectId,front panel,66726F6E742070616E656C2E6B696361,rev?*
G04 #@! TF.SameCoordinates,Original*
G04 #@! TF.FileFunction,Copper,L1,Top,Signal*
G04 #@! TF.FilePolarity,Positive*
%FSLAX46Y46*%
G04 Gerber Fmt 4.6, Leading zero omitted, Abs format (unit mm)*
G04 Created by KiCad (PCBNEW (5.0.0-3-g5ebb6b6)) date 2019 October 14, Monday 08:47:04*
%MOMM*%
%LPD*%
G01*
G04 APERTURE LIST*
G04 #@! TA.AperFunction,ComponentPad*
%ADD10C,2.000000*%
G04 #@! TD*
G04 #@! TA.AperFunction,ComponentPad*
%ADD11R,1.700000X1.700000*%
G04 #@! TD*
G04 #@! TA.AperFunction,ComponentPad*
%ADD12O,1.700000X1.700000*%
G04 #@! TD*
G04 #@! TA.AperFunction,Conductor*
%ADD13C,0.500000*%
G04 #@! TD*
G04 APERTURE END LIST*
D10*
G04 #@! TO.P,SW1,2*
G04 #@! TO.N,Net-(J1-Pad1)*
X100000000Y-106000000D03*
G04 #@! TO.P,SW1,1*
G04 #@! TO.N,Net-(J1-Pad2)*
X100000000Y-101500000D03*
G04 #@! TO.P,SW1,2*
G04 #@! TO.N,Net-(J1-Pad1)*
X106500000Y-106000000D03*
G04 #@! TO.P,SW1,1*
G04 #@! TO.N,Net-(J1-Pad2)*
X106500000Y-101500000D03*
G04 #@! TD*
D11*
G04 #@! TO.P,J2,1*
G04 #@! TO.N,Net-(J2-Pad1)*
X120000000Y-110500000D03*
D12*
G04 #@! TO.P,J2,2*
G04 #@! TO.N,Net-(J2-Pad2)*
X117460000Y-110500000D03*
G04 #@! TD*
G04 #@! TO.P,J3,2*
G04 #@! TO.N,Net-(J3-Pad2)*
X137460000Y-110500000D03*
D11*
G04 #@! TO.P,J3,1*
G04 #@! TO.N,Net-(J3-Pad1)*
X140000000Y-110500000D03*
G04 #@! TD*
D10*
G04 #@! TO.P,SW2,1*
G04 #@! TO.N,Net-(J2-Pad2)*
X126500000Y-101500000D03*
G04 #@! TO.P,SW2,2*
G04 #@! TO.N,Net-(J1-Pad1)*
X126500000Y-106000000D03*
G04 #@! TO.P,SW2,1*
G04 #@! TO.N,Net-(J2-Pad2)*
X120000000Y-101500000D03*
G04 #@! TO.P,SW2,2*
G04 #@! TO.N,Net-(J1-Pad1)*
X120000000Y-106000000D03*
G04 #@! TD*
D11*
G04 #@! TO.P,J1,1*
G04 #@! TO.N,Net-(J1-Pad1)*
X100000000Y-110500000D03*
D12*
G04 #@! TO.P,J1,2*
G04 #@! TO.N,Net-(J1-Pad2)*
X97460000Y-110500000D03*
G04 #@! TD*
G04 #@! TO.P,J4,2*
G04 #@! TO.N,Net-(J4-Pad2)*
X157460000Y-110500000D03*
D11*
G04 #@! TO.P,J4,1*
G04 #@! TO.N,Net-(J4-Pad1)*
X160000000Y-110500000D03*
G04 #@! TD*
D10*
G04 #@! TO.P,SW3,2*
G04 #@! TO.N,Net-(J1-Pad1)*
X140000000Y-106000000D03*
G04 #@! TO.P,SW3,1*
G04 #@! TO.N,Net-(J3-Pad2)*
X140000000Y-101500000D03*
G04 #@! TO.P,SW3,2*
G04 #@! TO.N,Net-(J1-Pad1)*
X146500000Y-106000000D03*
G04 #@! TO.P,SW3,1*
G04 #@! TO.N,Net-(J3-Pad2)*
X146500000Y-101500000D03*
G04 #@! TD*
G04 #@! TO.P,SW4,1*
G04 #@! TO.N,Net-(J4-Pad2)*
X166500000Y-101500000D03*
G04 #@! TO.P,SW4,2*
G04 #@! TO.N,Net-(J1-Pad1)*
X166500000Y-106000000D03*
G04 #@! TO.P,SW4,1*
G04 #@! TO.N,Net-(J4-Pad2)*
X160000000Y-101500000D03*
G04 #@! TO.P,SW4,2*
G04 #@! TO.N,Net-(J1-Pad1)*
X160000000Y-106000000D03*
G04 #@! TD*
D13*
G04 #@! TO.N,Net-(J1-Pad1)*
X120000000Y-106000000D02*
X126500000Y-106000000D01*
G04 #@! TO.N,Net-(J2-Pad2)*
X117460000Y-104040000D02*
X120000000Y-101500000D01*
X117460000Y-110500000D02*
X117460000Y-104040000D01*
X121414213Y-101500000D02*
X126500000Y-101500000D01*
X120000000Y-101500000D02*
X121414213Y-101500000D01*
G04 #@! TO.N,Net-(J3-Pad2)*
X137460000Y-104040000D02*
X140000000Y-101500000D01*
X137460000Y-110500000D02*
X137460000Y-104040000D01*
X141414213Y-101500000D02*
X146500000Y-101500000D01*
X140000000Y-101500000D02*
X141414213Y-101500000D01*
G04 #@! TO.N,Net-(J1-Pad1)*
X140000000Y-106000000D02*
X146500000Y-106000000D01*
X100000000Y-110500000D02*
X100000000Y-106000000D01*
X100000000Y-106000000D02*
X106500000Y-106000000D01*
G04 #@! TO.N,Net-(J1-Pad2)*
X97460000Y-104040000D02*
X100000000Y-101500000D01*
X97460000Y-110500000D02*
X97460000Y-104040000D01*
X101414213Y-101500000D02*
X106500000Y-101500000D01*
X100000000Y-101500000D02*
X101414213Y-101500000D01*
G04 #@! TO.N,Net-(J4-Pad2)*
X157460000Y-104040000D02*
X160000000Y-101500000D01*
X157460000Y-110500000D02*
X157460000Y-104040000D01*
X161414213Y-101500000D02*
X166500000Y-101500000D01*
X160000000Y-101500000D02*
X161414213Y-101500000D01*
G04 #@! TO.N,Net-(J1-Pad1)*
X160000000Y-106000000D02*
X166500000Y-106000000D01*
G04 #@! TD*
M02*
